%YAML 1.1
%TAG !u! tag:unity3d.com,2011:
--- !u!1 &1068410215687346
GameObject:
  m_ObjectHideFlags: 0
  m_CorrespondingSourceObject: {fileID: 0}
  m_PrefabInstance: {fileID: 0}
  m_PrefabAsset: {fileID: 0}
  serializedVersion: 6
  m_Component:
  - component: {fileID: 224077853362221854}
  - component: {fileID: 222857269914435680}
  - component: {fileID: 114940424182869358}
  - component: {fileID: 114011321579222630}
  m_Layer: 5
  m_Name: Stats Button
  m_TagString: Untagged
  m_Icon: {fileID: 0}
  m_NavMeshLayer: 0
  m_StaticEditorFlags: 0
  m_IsActive: 1
--- !u!224 &224077853362221854
RectTransform:
  m_ObjectHideFlags: 0
  m_CorrespondingSourceObject: {fileID: 0}
  m_PrefabInstance: {fileID: 0}
  m_PrefabAsset: {fileID: 0}
  m_GameObject: {fileID: 1068410215687346}
  m_LocalRotation: {x: -0, y: -0, z: -0, w: 1}
  m_LocalPosition: {x: 0, y: 0, z: 0}
  m_LocalScale: {x: 1, y: 1, z: 1}
  m_Children: []
  m_Father: {fileID: 224777089442717144}
  m_RootOrder: 0
  m_LocalEulerAnglesHint: {x: 0, y: 0, z: 0}
  m_AnchorMin: {x: 1, y: 1}
  m_AnchorMax: {x: 1, y: 1}
  m_AnchoredPosition: {x: -388, y: -32.000122}
  m_SizeDelta: {x: 128, y: 128}
  m_Pivot: {x: 0.5, y: 0.5}
--- !u!222 &222857269914435680
CanvasRenderer:
  m_ObjectHideFlags: 0
  m_CorrespondingSourceObject: {fileID: 0}
  m_PrefabInstance: {fileID: 0}
  m_PrefabAsset: {fileID: 0}
  m_GameObject: {fileID: 1068410215687346}
  m_CullTransparentMesh: 0
--- !u!114 &114940424182869358
MonoBehaviour:
  m_ObjectHideFlags: 0
  m_CorrespondingSourceObject: {fileID: 0}
  m_PrefabInstance: {fileID: 0}
  m_PrefabAsset: {fileID: 0}
  m_GameObject: {fileID: 1068410215687346}
  m_Enabled: 1
  m_EditorHideFlags: 0
  m_Script: {fileID: 11500000, guid: fe87c0e1cc204ed48ad3b37840f39efc, type: 3}
  m_Name: 
  m_EditorClassIdentifier: 
  m_Material: {fileID: 0}
  m_Color: {r: 1, g: 1, b: 1, a: 1}
  m_RaycastTarget: 1
  m_RaycastPadding: {x: 0, y: 0, z: 0, w: 0}
  m_Maskable: 1
  m_OnCullStateChanged:
    m_PersistentCalls:
      m_Calls: []
  m_Sprite: {fileID: 21300000, guid: 45b131bd81d7d49439aef2159828393a, type: 3}
  m_Type: 0
  m_PreserveAspect: 0
  m_FillCenter: 1
  m_FillMethod: 4
  m_FillAmount: 1
  m_FillClockwise: 1
  m_FillOrigin: 0
  m_UseSpriteMesh: 0
  m_PixelsPerUnitMultiplier: 1
--- !u!114 &114011321579222630
MonoBehaviour:
  m_ObjectHideFlags: 0
  m_CorrespondingSourceObject: {fileID: 0}
  m_PrefabInstance: {fileID: 0}
  m_PrefabAsset: {fileID: 0}
  m_GameObject: {fileID: 1068410215687346}
  m_Enabled: 1
  m_EditorHideFlags: 0
  m_Script: {fileID: 11500000, guid: 4e29b1a8efbd4b44bb3f3716e73f07ff, type: 3}
  m_Name: 
  m_EditorClassIdentifier: 
  m_Navigation:
    m_Mode: 3
    m_WrapAround: 0
    m_SelectOnUp: {fileID: 0}
    m_SelectOnDown: {fileID: 0}
    m_SelectOnLeft: {fileID: 0}
    m_SelectOnRight: {fileID: 0}
  m_Transition: 2
  m_Colors:
    m_NormalColor: {r: 1, g: 1, b: 1, a: 1}
    m_HighlightedColor: {r: 0.9607843, g: 0.9607843, b: 0.9607843, a: 1}
    m_PressedColor: {r: 0.78431374, g: 0.78431374, b: 0.78431374, a: 1}
    m_SelectedColor: {r: 0.9607843, g: 0.9607843, b: 0.9607843, a: 1}
    m_DisabledColor: {r: 0.78431374, g: 0.78431374, b: 0.78431374, a: 0.5019608}
    m_ColorMultiplier: 1
    m_FadeDuration: 0.1
  m_SpriteState:
    m_HighlightedSprite: {fileID: 0}
    m_PressedSprite: {fileID: 21300000, guid: 43343cc13a117cc4880361e6ceb31566, type: 3}
    m_SelectedSprite: {fileID: 0}
    m_DisabledSprite: {fileID: 0}
  m_AnimationTriggers:
    m_NormalTrigger: Normal
    m_HighlightedTrigger: Highlighted
    m_PressedTrigger: Pressed
    m_SelectedTrigger: Highlighted
    m_DisabledTrigger: Disabled
  m_Interactable: 1
  m_TargetGraphic: {fileID: 114940424182869358}
  m_OnClick:
    m_PersistentCalls:
      m_Calls: []
--- !u!1 &1201367050799700
GameObject:
  m_ObjectHideFlags: 0
  m_CorrespondingSourceObject: {fileID: 0}
  m_PrefabInstance: {fileID: 0}
  m_PrefabAsset: {fileID: 0}
  serializedVersion: 6
  m_Component:
  - component: {fileID: 224226396599572640}
  - component: {fileID: 222084111292962136}
  - component: {fileID: 114446031705675354}
  m_Layer: 5
  m_Name: Skills Button
  m_TagString: Untagged
  m_Icon: {fileID: 0}
  m_NavMeshLayer: 0
  m_StaticEditorFlags: 0
  m_IsActive: 1
--- !u!224 &224226396599572640
RectTransform:
  m_ObjectHideFlags: 0
  m_CorrespondingSourceObject: {fileID: 0}
  m_PrefabInstance: {fileID: 0}
  m_PrefabAsset: {fileID: 0}
  m_GameObject: {fileID: 1201367050799700}
  m_LocalRotation: {x: -0, y: -0, z: -0, w: 1}
  m_LocalPosition: {x: 0, y: 0, z: 0}
  m_LocalScale: {x: 1, y: 1, z: 1}
  m_Children: []
  m_Father: {fileID: 224777089442717144}
  m_RootOrder: 2
  m_LocalEulerAnglesHint: {x: 0, y: 0, z: 0}
  m_AnchorMin: {x: 1, y: 1}
  m_AnchorMax: {x: 1, y: 1}
  m_AnchoredPosition: {x: -124, y: -32.000244}
  m_SizeDelta: {x: 128, y: 128}
  m_Pivot: {x: 0.5, y: 0.5}
--- !u!222 &222084111292962136
CanvasRenderer:
  m_ObjectHideFlags: 0
  m_CorrespondingSourceObject: {fileID: 0}
  m_PrefabInstance: {fileID: 0}
  m_PrefabAsset: {fileID: 0}
  m_GameObject: {fileID: 1201367050799700}
  m_CullTransparentMesh: 0
--- !u!114 &114446031705675354
MonoBehaviour:
  m_ObjectHideFlags: 0
  m_CorrespondingSourceObject: {fileID: 0}
  m_PrefabInstance: {fileID: 0}
  m_PrefabAsset: {fileID: 0}
  m_GameObject: {fileID: 1201367050799700}
  m_Enabled: 1
  m_EditorHideFlags: 0
  m_Script: {fileID: 11500000, guid: fe87c0e1cc204ed48ad3b37840f39efc, type: 3}
  m_Name: 
  m_EditorClassIdentifier: 
  m_Material: {fileID: 0}
  m_Color: {r: 1, g: 1, b: 1, a: 1}
  m_RaycastTarget: 1
  m_RaycastPadding: {x: 0, y: 0, z: 0, w: 0}
  m_Maskable: 1
  m_OnCullStateChanged:
    m_PersistentCalls:
      m_Calls: []
  m_Sprite: {fileID: 21300000, guid: 5ddf9f0620390bf4db1980ca2abb5df4, type: 3}
  m_Type: 0
  m_PreserveAspect: 0
  m_FillCenter: 1
  m_FillMethod: 4
  m_FillAmount: 1
  m_FillClockwise: 1
  m_FillOrigin: 0
  m_UseSpriteMesh: 0
  m_PixelsPerUnitMultiplier: 1
--- !u!1 &1618136693512946
GameObject:
  m_ObjectHideFlags: 0
  m_CorrespondingSourceObject: {fileID: 0}
  m_PrefabInstance: {fileID: 0}
  m_PrefabAsset: {fileID: 0}
  serializedVersion: 6
  m_Component:
  - component: {fileID: 224285457996228904}
  - component: {fileID: 223862058288242234}
  - component: {fileID: 114908635035062308}
  - component: {fileID: 114852176729683902}
  - component: {fileID: 7037171178500257799}
  m_Layer: 5
  m_Name: Stats Canvas
  m_TagString: Untagged
  m_Icon: {fileID: 0}
  m_NavMeshLayer: 0
  m_StaticEditorFlags: 0
  m_IsActive: 1
--- !u!224 &224285457996228904
RectTransform:
  m_ObjectHideFlags: 0
  m_CorrespondingSourceObject: {fileID: 0}
  m_PrefabInstance: {fileID: 0}
  m_PrefabAsset: {fileID: 0}
  m_GameObject: {fileID: 1618136693512946}
  m_LocalRotation: {x: 0, y: 0, z: 0, w: 1}
  m_LocalPosition: {x: 0, y: 0, z: 0}
  m_LocalScale: {x: 0, y: 0, z: 0}
  m_Children:
  - {fileID: 1301056391861448082}
  m_Father: {fileID: 0}
  m_RootOrder: 0
  m_LocalEulerAnglesHint: {x: 0, y: 0, z: 0}
  m_AnchorMin: {x: 0, y: 0}
  m_AnchorMax: {x: 0, y: 0}
  m_AnchoredPosition: {x: 0, y: 0}
  m_SizeDelta: {x: 0, y: 0}
  m_Pivot: {x: 0, y: 0}
--- !u!223 &223862058288242234
Canvas:
  m_ObjectHideFlags: 0
  m_CorrespondingSourceObject: {fileID: 0}
  m_PrefabInstance: {fileID: 0}
  m_PrefabAsset: {fileID: 0}
  m_GameObject: {fileID: 1618136693512946}
  m_Enabled: 1
  serializedVersion: 3
  m_RenderMode: 0
  m_Camera: {fileID: 0}
  m_PlaneDistance: 100
  m_PixelPerfect: 0
  m_ReceivesEvents: 1
  m_OverrideSorting: 0
  m_OverridePixelPerfect: 0
  m_SortingBucketNormalizedSize: 0
  m_AdditionalShaderChannelsFlag: 25
  m_SortingLayerID: 0
  m_SortingOrder: 0
  m_TargetDisplay: 0
--- !u!114 &114908635035062308
MonoBehaviour:
  m_ObjectHideFlags: 0
  m_CorrespondingSourceObject: {fileID: 0}
  m_PrefabInstance: {fileID: 0}
  m_PrefabAsset: {fileID: 0}
  m_GameObject: {fileID: 1618136693512946}
  m_Enabled: 1
  m_EditorHideFlags: 0
  m_Script: {fileID: 11500000, guid: 0cd44c1031e13a943bb63640046fad76, type: 3}
  m_Name: 
  m_EditorClassIdentifier: 
  m_UiScaleMode: 1
  m_ReferencePixelsPerUnit: 100
  m_ScaleFactor: 0.5
  m_ReferenceResolution: {x: 2000, y: 2100}
  m_ScreenMatchMode: 1
  m_MatchWidthOrHeight: 1
  m_PhysicalUnit: 0
  m_FallbackScreenDPI: 96
  m_DefaultSpriteDPI: 96
  m_DynamicPixelsPerUnit: 1
  m_PresetInfoIsWorld: 0
--- !u!114 &114852176729683902
MonoBehaviour:
  m_ObjectHideFlags: 0
  m_CorrespondingSourceObject: {fileID: 0}
  m_PrefabInstance: {fileID: 0}
  m_PrefabAsset: {fileID: 0}
  m_GameObject: {fileID: 1618136693512946}
  m_Enabled: 1
  m_EditorHideFlags: 0
  m_Script: {fileID: 11500000, guid: dc42784cf147c0c48a680349fa168899, type: 3}
  m_Name: 
  m_EditorClassIdentifier: 
  m_IgnoreReversedGraphics: 1
  m_BlockingObjects: 0
  m_BlockingMask:
    serializedVersion: 2
    m_Bits: 4294967295
--- !u!114 &7037171178500257799
MonoBehaviour:
  m_ObjectHideFlags: 0
  m_CorrespondingSourceObject: {fileID: 0}
  m_PrefabInstance: {fileID: 0}
  m_PrefabAsset: {fileID: 0}
  m_GameObject: {fileID: 1618136693512946}
  m_Enabled: 1
  m_EditorHideFlags: 0
  m_Script: {fileID: 11500000, guid: f7b6a7fac6e2d604a8e529f6dddf65b1, type: 3}
  m_Name: 
  m_EditorClassIdentifier: 
  toggleKey: 105
  uiContainer: {fileID: 1034273193031051067}
--- !u!1 &1679145033833912
GameObject:
  m_ObjectHideFlags: 0
  m_CorrespondingSourceObject: {fileID: 0}
  m_PrefabInstance: {fileID: 0}
  m_PrefabAsset: {fileID: 0}
  serializedVersion: 6
  m_Component:
  - component: {fileID: 224574781564164130}
  - component: {fileID: 222208903210066826}
  - component: {fileID: 114855026509331768}
  m_Layer: 5
  m_Name: Inventory Button
  m_TagString: Untagged
  m_Icon: {fileID: 0}
  m_NavMeshLayer: 0
  m_StaticEditorFlags: 0
  m_IsActive: 1
--- !u!224 &224574781564164130
RectTransform:
  m_ObjectHideFlags: 0
  m_CorrespondingSourceObject: {fileID: 0}
  m_PrefabInstance: {fileID: 0}
  m_PrefabAsset: {fileID: 0}
  m_GameObject: {fileID: 1679145033833912}
  m_LocalRotation: {x: 0, y: 0, z: 0, w: 1}
  m_LocalPosition: {x: 0, y: 0, z: 0}
  m_LocalScale: {x: 1, y: 1, z: 1}
  m_Children: []
  m_Father: {fileID: 224777089442717144}
  m_RootOrder: 1
  m_LocalEulerAnglesHint: {x: 0, y: 0, z: 0}
  m_AnchorMin: {x: 1, y: 1}
  m_AnchorMax: {x: 1, y: 1}
  m_AnchoredPosition: {x: -252, y: -32.000244}
  m_SizeDelta: {x: 128, y: 128}
  m_Pivot: {x: 0.5, y: 0.5}
--- !u!222 &222208903210066826
CanvasRenderer:
  m_ObjectHideFlags: 0
  m_CorrespondingSourceObject: {fileID: 0}
  m_PrefabInstance: {fileID: 0}
  m_PrefabAsset: {fileID: 0}
  m_GameObject: {fileID: 1679145033833912}
  m_CullTransparentMesh: 0
--- !u!114 &114855026509331768
MonoBehaviour:
  m_ObjectHideFlags: 0
  m_CorrespondingSourceObject: {fileID: 0}
  m_PrefabInstance: {fileID: 0}
  m_PrefabAsset: {fileID: 0}
  m_GameObject: {fileID: 1679145033833912}
  m_Enabled: 1
  m_EditorHideFlags: 0
  m_Script: {fileID: 11500000, guid: fe87c0e1cc204ed48ad3b37840f39efc, type: 3}
  m_Name: 
  m_EditorClassIdentifier: 
  m_Material: {fileID: 0}
  m_Color: {r: 1, g: 1, b: 1, a: 1}
  m_RaycastTarget: 1
  m_RaycastPadding: {x: 0, y: 0, z: 0, w: 0}
  m_Maskable: 1
  m_OnCullStateChanged:
    m_PersistentCalls:
      m_Calls: []
  m_Sprite: {fileID: 21300000, guid: bc7147459da6e0944b077b8808cf1898, type: 3}
  m_Type: 0
  m_PreserveAspect: 0
  m_FillCenter: 1
  m_FillMethod: 4
  m_FillAmount: 1
  m_FillClockwise: 1
  m_FillOrigin: 0
  m_UseSpriteMesh: 0
  m_PixelsPerUnitMultiplier: 1
--- !u!1 &1702525672171512
GameObject:
  m_ObjectHideFlags: 0
  m_CorrespondingSourceObject: {fileID: 0}
  m_PrefabInstance: {fileID: 0}
  m_PrefabAsset: {fileID: 0}
  serializedVersion: 6
  m_Component:
  - component: {fileID: 224777089442717144}
  - component: {fileID: 222212814192087734}
  - component: {fileID: 114017761179953734}
  m_Layer: 5
  m_Name: Tab Area
  m_TagString: Untagged
  m_Icon: {fileID: 0}
  m_NavMeshLayer: 0
  m_StaticEditorFlags: 0
  m_IsActive: 1
--- !u!224 &224777089442717144
RectTransform:
  m_ObjectHideFlags: 0
  m_CorrespondingSourceObject: {fileID: 0}
  m_PrefabInstance: {fileID: 0}
  m_PrefabAsset: {fileID: 0}
  m_GameObject: {fileID: 1702525672171512}
  m_LocalRotation: {x: -0, y: -0, z: -0, w: 1}
  m_LocalPosition: {x: 0, y: 0, z: 0}
  m_LocalScale: {x: 1, y: 1, z: 1}
  m_Children:
  - {fileID: 224077853362221854}
  - {fileID: 224574781564164130}
  - {fileID: 224226396599572640}
  - {fileID: 224664830363741754}
  m_Father: {fileID: 1301056391861448082}
  m_RootOrder: 0
  m_LocalEulerAnglesHint: {x: 0, y: 0, z: 0}
  m_AnchorMin: {x: 1, y: 0}
  m_AnchorMax: {x: 1, y: 1}
  m_AnchoredPosition: {x: 0, y: 188.87}
  m_SizeDelta: {x: 1100.9, y: -735.75}
  m_Pivot: {x: 1, y: 0.5}
--- !u!222 &222212814192087734
CanvasRenderer:
  m_ObjectHideFlags: 0
  m_CorrespondingSourceObject: {fileID: 0}
  m_PrefabInstance: {fileID: 0}
  m_PrefabAsset: {fileID: 0}
  m_GameObject: {fileID: 1702525672171512}
  m_CullTransparentMesh: 0
--- !u!114 &114017761179953734
MonoBehaviour:
  m_ObjectHideFlags: 0
  m_CorrespondingSourceObject: {fileID: 0}
  m_PrefabInstance: {fileID: 0}
  m_PrefabAsset: {fileID: 0}
  m_GameObject: {fileID: 1702525672171512}
  m_Enabled: 1
  m_EditorHideFlags: 0
  m_Script: {fileID: 11500000, guid: fe87c0e1cc204ed48ad3b37840f39efc, type: 3}
  m_Name: 
  m_EditorClassIdentifier: 
  m_Material: {fileID: 0}
  m_Color: {r: 1, g: 1, b: 1, a: 1}
  m_RaycastTarget: 1
  m_RaycastPadding: {x: 0, y: 0, z: 0, w: 0}
  m_Maskable: 1
  m_OnCullStateChanged:
    m_PersistentCalls:
      m_Calls: []
  m_Sprite: {fileID: 21300000, guid: ff128f70cb401434da05bb746522f40d, type: 3}
  m_Type: 1
  m_PreserveAspect: 0
  m_FillCenter: 1
  m_FillMethod: 4
  m_FillAmount: 1
  m_FillClockwise: 1
  m_FillOrigin: 0
  m_UseSpriteMesh: 0
  m_PixelsPerUnitMultiplier: 1
--- !u!1 &1034273193031051067
GameObject:
  m_ObjectHideFlags: 0
  m_CorrespondingSourceObject: {fileID: 0}
  m_PrefabInstance: {fileID: 0}
  m_PrefabAsset: {fileID: 0}
  serializedVersion: 6
  m_Component:
  - component: {fileID: 1301056391861448082}
  - component: {fileID: 8678204806552336259}
  m_Layer: 5
  m_Name: Panel
  m_TagString: Untagged
  m_Icon: {fileID: 0}
  m_NavMeshLayer: 0
  m_StaticEditorFlags: 0
  m_IsActive: 1
--- !u!224 &1301056391861448082
RectTransform:
  m_ObjectHideFlags: 0
  m_CorrespondingSourceObject: {fileID: 0}
  m_PrefabInstance: {fileID: 0}
  m_PrefabAsset: {fileID: 0}
  m_GameObject: {fileID: 1034273193031051067}
  m_LocalRotation: {x: -0, y: -0, z: -0, w: 1}
  m_LocalPosition: {x: 0, y: 0, z: 0}
  m_LocalScale: {x: 1, y: 1, z: 1}
  m_Children:
  - {fileID: 224777089442717144}
  m_Father: {fileID: 224285457996228904}
  m_RootOrder: 0
  m_LocalEulerAnglesHint: {x: 0, y: 0, z: 0}
  m_AnchorMin: {x: 0, y: 0}
  m_AnchorMax: {x: 1, y: 1}
  m_AnchoredPosition: {x: 0.0234375, y: -25}
  m_SizeDelta: {x: -0.050293, y: 50}
  m_Pivot: {x: 0.5, y: 0.5}
--- !u!222 &8678204806552336259
CanvasRenderer:
  m_ObjectHideFlags: 0
  m_CorrespondingSourceObject: {fileID: 0}
  m_PrefabInstance: {fileID: 0}
  m_PrefabAsset: {fileID: 0}
  m_GameObject: {fileID: 1034273193031051067}
  m_CullTransparentMesh: 0
--- !u!1001 &4687762092362387090
PrefabInstance:
  m_ObjectHideFlags: 0
  serializedVersion: 2
  m_Modification:
    m_TransformParent: {fileID: 224777089442717144}
    m_Modifications:
    - target: {fileID: 508727571513651812, guid: 9f83b4029f4b8bf48933ffe33ed0dd3e, type: 3}
      propertyPath: m_AnchorMax.y
      value: 0
      objectReference: {fileID: 0}
    - target: {fileID: 508727571513651812, guid: 9f83b4029f4b8bf48933ffe33ed0dd3e, type: 3}
      propertyPath: m_AnchorMin.y
      value: 0
      objectReference: {fileID: 0}
    - target: {fileID: 508727571513651812, guid: 9f83b4029f4b8bf48933ffe33ed0dd3e, type: 3}
      propertyPath: m_SizeDelta.x
      value: 0
      objectReference: {fileID: 0}
    - target: {fileID: 508727571513651812, guid: 9f83b4029f4b8bf48933ffe33ed0dd3e, type: 3}
      propertyPath: m_SizeDelta.y
      value: 0
      objectReference: {fileID: 0}
    - target: {fileID: 508727571513651812, guid: 9f83b4029f4b8bf48933ffe33ed0dd3e, type: 3}
      propertyPath: m_AnchoredPosition.x
      value: 0
      objectReference: {fileID: 0}
    - target: {fileID: 508727571513651812, guid: 9f83b4029f4b8bf48933ffe33ed0dd3e, type: 3}
      propertyPath: m_AnchoredPosition.y
      value: 0
      objectReference: {fileID: 0}
    - target: {fileID: 1814054445751694238, guid: 9f83b4029f4b8bf48933ffe33ed0dd3e, type: 3}
      propertyPath: m_AnchorMax.y
      value: 0
      objectReference: {fileID: 0}
    - target: {fileID: 1814054445751694238, guid: 9f83b4029f4b8bf48933ffe33ed0dd3e, type: 3}
      propertyPath: m_AnchorMin.y
      value: 0
      objectReference: {fileID: 0}
    - target: {fileID: 1814054445751694238, guid: 9f83b4029f4b8bf48933ffe33ed0dd3e, type: 3}
      propertyPath: m_SizeDelta.x
      value: 0
      objectReference: {fileID: 0}
    - target: {fileID: 1814054445751694238, guid: 9f83b4029f4b8bf48933ffe33ed0dd3e, type: 3}
      propertyPath: m_SizeDelta.y
      value: 0
      objectReference: {fileID: 0}
    - target: {fileID: 1814054445751694238, guid: 9f83b4029f4b8bf48933ffe33ed0dd3e, type: 3}
      propertyPath: m_AnchoredPosition.x
      value: 0
      objectReference: {fileID: 0}
    - target: {fileID: 1814054445751694238, guid: 9f83b4029f4b8bf48933ffe33ed0dd3e, type: 3}
      propertyPath: m_AnchoredPosition.y
      value: 0
      objectReference: {fileID: 0}
    - target: {fileID: 2737493374618280158, guid: 9f83b4029f4b8bf48933ffe33ed0dd3e, type: 3}
      propertyPath: m_AnchorMax.y
      value: 0
      objectReference: {fileID: 0}
    - target: {fileID: 2737493374618280158, guid: 9f83b4029f4b8bf48933ffe33ed0dd3e, type: 3}
      propertyPath: m_AnchorMin.y
      value: 0
      objectReference: {fileID: 0}
    - target: {fileID: 2737493374618280158, guid: 9f83b4029f4b8bf48933ffe33ed0dd3e, type: 3}
      propertyPath: m_SizeDelta.x
      value: 0
      objectReference: {fileID: 0}
    - target: {fileID: 2737493374618280158, guid: 9f83b4029f4b8bf48933ffe33ed0dd3e, type: 3}
      propertyPath: m_SizeDelta.y
      value: 0
      objectReference: {fileID: 0}
    - target: {fileID: 2737493374618280158, guid: 9f83b4029f4b8bf48933ffe33ed0dd3e, type: 3}
      propertyPath: m_AnchoredPosition.x
      value: 0
      objectReference: {fileID: 0}
    - target: {fileID: 2737493374618280158, guid: 9f83b4029f4b8bf48933ffe33ed0dd3e, type: 3}
      propertyPath: m_AnchoredPosition.y
      value: 0
      objectReference: {fileID: 0}
    - target: {fileID: 3045104233750282392, guid: 9f83b4029f4b8bf48933ffe33ed0dd3e, type: 3}
      propertyPath: m_AnchorMax.y
      value: 0
      objectReference: {fileID: 0}
    - target: {fileID: 3045104233750282392, guid: 9f83b4029f4b8bf48933ffe33ed0dd3e, type: 3}
      propertyPath: m_AnchorMin.y
      value: 0
      objectReference: {fileID: 0}
    - target: {fileID: 3045104233750282392, guid: 9f83b4029f4b8bf48933ffe33ed0dd3e, type: 3}
      propertyPath: m_SizeDelta.x
      value: 0
      objectReference: {fileID: 0}
    - target: {fileID: 3045104233750282392, guid: 9f83b4029f4b8bf48933ffe33ed0dd3e, type: 3}
      propertyPath: m_SizeDelta.y
      value: 0
      objectReference: {fileID: 0}
    - target: {fileID: 3045104233750282392, guid: 9f83b4029f4b8bf48933ffe33ed0dd3e, type: 3}
      propertyPath: m_AnchoredPosition.x
      value: 0
      objectReference: {fileID: 0}
    - target: {fileID: 3045104233750282392, guid: 9f83b4029f4b8bf48933ffe33ed0dd3e, type: 3}
      propertyPath: m_AnchoredPosition.y
      value: 0
      objectReference: {fileID: 0}
    - target: {fileID: 3147398050440690344, guid: 9f83b4029f4b8bf48933ffe33ed0dd3e, type: 3}
      propertyPath: m_AnchorMax.y
      value: 0
      objectReference: {fileID: 0}
    - target: {fileID: 3147398050440690344, guid: 9f83b4029f4b8bf48933ffe33ed0dd3e, type: 3}
      propertyPath: m_AnchorMin.y
      value: 0
      objectReference: {fileID: 0}
    - target: {fileID: 3147398050440690344, guid: 9f83b4029f4b8bf48933ffe33ed0dd3e, type: 3}
      propertyPath: m_SizeDelta.x
      value: 0
      objectReference: {fileID: 0}
    - target: {fileID: 3147398050440690344, guid: 9f83b4029f4b8bf48933ffe33ed0dd3e, type: 3}
      propertyPath: m_SizeDelta.y
      value: 0
      objectReference: {fileID: 0}
    - target: {fileID: 3147398050440690344, guid: 9f83b4029f4b8bf48933ffe33ed0dd3e, type: 3}
      propertyPath: m_AnchoredPosition.x
      value: 0
      objectReference: {fileID: 0}
    - target: {fileID: 3147398050440690344, guid: 9f83b4029f4b8bf48933ffe33ed0dd3e, type: 3}
      propertyPath: m_AnchoredPosition.y
      value: 0
      objectReference: {fileID: 0}
    - target: {fileID: 3618852717844289820, guid: 9f83b4029f4b8bf48933ffe33ed0dd3e, type: 3}
      propertyPath: m_AnchorMax.y
      value: 0
      objectReference: {fileID: 0}
    - target: {fileID: 3618852717844289820, guid: 9f83b4029f4b8bf48933ffe33ed0dd3e, type: 3}
      propertyPath: m_AnchorMin.y
      value: 0
      objectReference: {fileID: 0}
    - target: {fileID: 3618852717844289820, guid: 9f83b4029f4b8bf48933ffe33ed0dd3e, type: 3}
      propertyPath: m_SizeDelta.x
      value: 0
      objectReference: {fileID: 0}
    - target: {fileID: 3618852717844289820, guid: 9f83b4029f4b8bf48933ffe33ed0dd3e, type: 3}
      propertyPath: m_SizeDelta.y
      value: 0
      objectReference: {fileID: 0}
    - target: {fileID: 3618852717844289820, guid: 9f83b4029f4b8bf48933ffe33ed0dd3e, type: 3}
      propertyPath: m_AnchoredPosition.x
      value: 0
      objectReference: {fileID: 0}
    - target: {fileID: 3618852717844289820, guid: 9f83b4029f4b8bf48933ffe33ed0dd3e, type: 3}
      propertyPath: m_AnchoredPosition.y
      value: 0
      objectReference: {fileID: 0}
    - target: {fileID: 4403361540775938393, guid: 9f83b4029f4b8bf48933ffe33ed0dd3e, type: 3}
      propertyPath: m_AnchorMax.y
      value: 0
      objectReference: {fileID: 0}
    - target: {fileID: 4403361540775938393, guid: 9f83b4029f4b8bf48933ffe33ed0dd3e, type: 3}
      propertyPath: m_AnchorMin.y
      value: 0
      objectReference: {fileID: 0}
    - target: {fileID: 4403361540775938393, guid: 9f83b4029f4b8bf48933ffe33ed0dd3e, type: 3}
      propertyPath: m_SizeDelta.x
      value: 0
      objectReference: {fileID: 0}
    - target: {fileID: 4403361540775938393, guid: 9f83b4029f4b8bf48933ffe33ed0dd3e, type: 3}
      propertyPath: m_SizeDelta.y
      value: 0
      objectReference: {fileID: 0}
    - target: {fileID: 4403361540775938393, guid: 9f83b4029f4b8bf48933ffe33ed0dd3e, type: 3}
      propertyPath: m_AnchoredPosition.x
      value: 0
      objectReference: {fileID: 0}
    - target: {fileID: 4403361540775938393, guid: 9f83b4029f4b8bf48933ffe33ed0dd3e, type: 3}
      propertyPath: m_AnchoredPosition.y
      value: 0
      objectReference: {fileID: 0}
    - target: {fileID: 4433695163739033535, guid: 9f83b4029f4b8bf48933ffe33ed0dd3e, type: 3}
      propertyPath: m_AnchorMax.y
      value: 0
      objectReference: {fileID: 0}
    - target: {fileID: 4433695163739033535, guid: 9f83b4029f4b8bf48933ffe33ed0dd3e, type: 3}
      propertyPath: m_AnchorMin.y
      value: 0
      objectReference: {fileID: 0}
    - target: {fileID: 4433695163739033535, guid: 9f83b4029f4b8bf48933ffe33ed0dd3e, type: 3}
      propertyPath: m_SizeDelta.x
      value: 0
      objectReference: {fileID: 0}
    - target: {fileID: 4433695163739033535, guid: 9f83b4029f4b8bf48933ffe33ed0dd3e, type: 3}
      propertyPath: m_SizeDelta.y
      value: 0
      objectReference: {fileID: 0}
    - target: {fileID: 4433695163739033535, guid: 9f83b4029f4b8bf48933ffe33ed0dd3e, type: 3}
      propertyPath: m_AnchoredPosition.x
      value: 0
      objectReference: {fileID: 0}
    - target: {fileID: 4433695163739033535, guid: 9f83b4029f4b8bf48933ffe33ed0dd3e, type: 3}
      propertyPath: m_AnchoredPosition.y
      value: 0
      objectReference: {fileID: 0}
    - target: {fileID: 4654888406443891904, guid: 9f83b4029f4b8bf48933ffe33ed0dd3e, type: 3}
      propertyPath: m_fontAsset
      value: 
      objectReference: {fileID: 11400000, guid: 8f586378b4e144a9851e7b34d9b748ee, type: 2}
    - target: {fileID: 4654888406443891904, guid: 9f83b4029f4b8bf48933ffe33ed0dd3e, type: 3}
      propertyPath: m_textAlignment
      value: 65535
      objectReference: {fileID: 0}
    - target: {fileID: 4654888406443891904, guid: 9f83b4029f4b8bf48933ffe33ed0dd3e, type: 3}
      propertyPath: m_TextStyleHashCode
      value: -1183493901
      objectReference: {fileID: 0}
    - target: {fileID: 4654888406443891904, guid: 9f83b4029f4b8bf48933ffe33ed0dd3e, type: 3}
      propertyPath: m_VerticalAlignment
      value: 512
      objectReference: {fileID: 0}
    - target: {fileID: 4654888406443891904, guid: 9f83b4029f4b8bf48933ffe33ed0dd3e, type: 3}
      propertyPath: m_HorizontalAlignment
      value: 2
      objectReference: {fileID: 0}
    - target: {fileID: 4654888406443891904, guid: 9f83b4029f4b8bf48933ffe33ed0dd3e, type: 3}
      propertyPath: m_havePropertiesChanged
      value: 0
      objectReference: {fileID: 0}
    - target: {fileID: 4654888406443891904, guid: 9f83b4029f4b8bf48933ffe33ed0dd3e, type: 3}
      propertyPath: m_isInputParsingRequired
      value: 0
      objectReference: {fileID: 0}
    - target: {fileID: 4655522953391929268, guid: 9f83b4029f4b8bf48933ffe33ed0dd3e, type: 3}
      propertyPath: m_Size
      value: 0.9425789
      objectReference: {fileID: 0}
    - target: {fileID: 4655522953391929268, guid: 9f83b4029f4b8bf48933ffe33ed0dd3e, type: 3}
      propertyPath: m_Value
      value: -7.7075987
      objectReference: {fileID: 0}
    - target: {fileID: 4687004334158990512, guid: 9f83b4029f4b8bf48933ffe33ed0dd3e, type: 3}
      propertyPath: m_Name
      value: Inventory
      objectReference: {fileID: 0}
    - target: {fileID: 4760347992702316348, guid: 9f83b4029f4b8bf48933ffe33ed0dd3e, type: 3}
      propertyPath: m_AnchorMax.y
      value: 0
      objectReference: {fileID: 0}
    - target: {fileID: 4760347992702316348, guid: 9f83b4029f4b8bf48933ffe33ed0dd3e, type: 3}
      propertyPath: m_AnchorMin.y
      value: 0
      objectReference: {fileID: 0}
    - target: {fileID: 4760347992702316348, guid: 9f83b4029f4b8bf48933ffe33ed0dd3e, type: 3}
      propertyPath: m_SizeDelta.x
      value: 0
      objectReference: {fileID: 0}
    - target: {fileID: 4760347992702316348, guid: 9f83b4029f4b8bf48933ffe33ed0dd3e, type: 3}
      propertyPath: m_SizeDelta.y
      value: 0
      objectReference: {fileID: 0}
    - target: {fileID: 4760347992702316348, guid: 9f83b4029f4b8bf48933ffe33ed0dd3e, type: 3}
      propertyPath: m_AnchoredPosition.x
      value: 0
      objectReference: {fileID: 0}
    - target: {fileID: 4760347992702316348, guid: 9f83b4029f4b8bf48933ffe33ed0dd3e, type: 3}
      propertyPath: m_AnchoredPosition.y
      value: 0
      objectReference: {fileID: 0}
    - target: {fileID: 4760396394316069408, guid: 9f83b4029f4b8bf48933ffe33ed0dd3e, type: 3}
      propertyPath: m_AnchorMax.y
      value: 0
      objectReference: {fileID: 0}
    - target: {fileID: 4760396394316069408, guid: 9f83b4029f4b8bf48933ffe33ed0dd3e, type: 3}
      propertyPath: m_AnchorMin.y
      value: 0
      objectReference: {fileID: 0}
    - target: {fileID: 4760396394316069408, guid: 9f83b4029f4b8bf48933ffe33ed0dd3e, type: 3}
      propertyPath: m_SizeDelta.x
      value: 0
      objectReference: {fileID: 0}
    - target: {fileID: 4760396394316069408, guid: 9f83b4029f4b8bf48933ffe33ed0dd3e, type: 3}
      propertyPath: m_SizeDelta.y
      value: 0
      objectReference: {fileID: 0}
    - target: {fileID: 4760396394316069408, guid: 9f83b4029f4b8bf48933ffe33ed0dd3e, type: 3}
      propertyPath: m_AnchoredPosition.x
      value: 0
      objectReference: {fileID: 0}
    - target: {fileID: 4760396394316069408, guid: 9f83b4029f4b8bf48933ffe33ed0dd3e, type: 3}
      propertyPath: m_AnchoredPosition.y
      value: 0
      objectReference: {fileID: 0}
    - target: {fileID: 4760425410114085032, guid: 9f83b4029f4b8bf48933ffe33ed0dd3e, type: 3}
      propertyPath: m_Pivot.x
      value: 0.5
      objectReference: {fileID: 0}
    - target: {fileID: 4760425410114085032, guid: 9f83b4029f4b8bf48933ffe33ed0dd3e, type: 3}
      propertyPath: m_Pivot.y
      value: 0.5
      objectReference: {fileID: 0}
    - target: {fileID: 4760425410114085032, guid: 9f83b4029f4b8bf48933ffe33ed0dd3e, type: 3}
      propertyPath: m_RootOrder
      value: 3
      objectReference: {fileID: 0}
    - target: {fileID: 4760425410114085032, guid: 9f83b4029f4b8bf48933ffe33ed0dd3e, type: 3}
      propertyPath: m_AnchorMax.x
      value: 1
      objectReference: {fileID: 0}
    - target: {fileID: 4760425410114085032, guid: 9f83b4029f4b8bf48933ffe33ed0dd3e, type: 3}
      propertyPath: m_AnchorMax.y
      value: 1
      objectReference: {fileID: 0}
    - target: {fileID: 4760425410114085032, guid: 9f83b4029f4b8bf48933ffe33ed0dd3e, type: 3}
      propertyPath: m_AnchorMin.x
      value: 0
      objectReference: {fileID: 0}
    - target: {fileID: 4760425410114085032, guid: 9f83b4029f4b8bf48933ffe33ed0dd3e, type: 3}
      propertyPath: m_AnchorMin.y
      value: 0
      objectReference: {fileID: 0}
    - target: {fileID: 4760425410114085032, guid: 9f83b4029f4b8bf48933ffe33ed0dd3e, type: 3}
      propertyPath: m_SizeDelta.x
      value: -0.00012207031
      objectReference: {fileID: 0}
    - target: {fileID: 4760425410114085032, guid: 9f83b4029f4b8bf48933ffe33ed0dd3e, type: 3}
      propertyPath: m_SizeDelta.y
      value: 0
      objectReference: {fileID: 0}
    - target: {fileID: 4760425410114085032, guid: 9f83b4029f4b8bf48933ffe33ed0dd3e, type: 3}
      propertyPath: m_LocalPosition.x
      value: 0
      objectReference: {fileID: 0}
    - target: {fileID: 4760425410114085032, guid: 9f83b4029f4b8bf48933ffe33ed0dd3e, type: 3}
      propertyPath: m_LocalPosition.y
      value: 0
      objectReference: {fileID: 0}
    - target: {fileID: 4760425410114085032, guid: 9f83b4029f4b8bf48933ffe33ed0dd3e, type: 3}
      propertyPath: m_LocalPosition.z
      value: 0
      objectReference: {fileID: 0}
    - target: {fileID: 4760425410114085032, guid: 9f83b4029f4b8bf48933ffe33ed0dd3e, type: 3}
      propertyPath: m_LocalRotation.w
      value: 1
      objectReference: {fileID: 0}
    - target: {fileID: 4760425410114085032, guid: 9f83b4029f4b8bf48933ffe33ed0dd3e, type: 3}
      propertyPath: m_LocalRotation.x
      value: -0
      objectReference: {fileID: 0}
    - target: {fileID: 4760425410114085032, guid: 9f83b4029f4b8bf48933ffe33ed0dd3e, type: 3}
      propertyPath: m_LocalRotation.y
      value: -0
      objectReference: {fileID: 0}
    - target: {fileID: 4760425410114085032, guid: 9f83b4029f4b8bf48933ffe33ed0dd3e, type: 3}
      propertyPath: m_LocalRotation.z
      value: -0
      objectReference: {fileID: 0}
    - target: {fileID: 4760425410114085032, guid: 9f83b4029f4b8bf48933ffe33ed0dd3e, type: 3}
      propertyPath: m_AnchoredPosition.x
      value: 0
      objectReference: {fileID: 0}
    - target: {fileID: 4760425410114085032, guid: 9f83b4029f4b8bf48933ffe33ed0dd3e, type: 3}
      propertyPath: m_AnchoredPosition.y
      value: 0
      objectReference: {fileID: 0}
    - target: {fileID: 4760425410114085032, guid: 9f83b4029f4b8bf48933ffe33ed0dd3e, type: 3}
      propertyPath: m_LocalEulerAnglesHint.x
      value: 0
      objectReference: {fileID: 0}
    - target: {fileID: 4760425410114085032, guid: 9f83b4029f4b8bf48933ffe33ed0dd3e, type: 3}
      propertyPath: m_LocalEulerAnglesHint.y
      value: 0
      objectReference: {fileID: 0}
    - target: {fileID: 4760425410114085032, guid: 9f83b4029f4b8bf48933ffe33ed0dd3e, type: 3}
      propertyPath: m_LocalEulerAnglesHint.z
      value: 0
      objectReference: {fileID: 0}
    - target: {fileID: 4760450523440431310, guid: 9f83b4029f4b8bf48933ffe33ed0dd3e, type: 3}
      propertyPath: m_AnchorMax.y
      value: 0
      objectReference: {fileID: 0}
    - target: {fileID: 4760450523440431310, guid: 9f83b4029f4b8bf48933ffe33ed0dd3e, type: 3}
      propertyPath: m_AnchorMin.y
      value: 0
      objectReference: {fileID: 0}
    - target: {fileID: 4760450523440431310, guid: 9f83b4029f4b8bf48933ffe33ed0dd3e, type: 3}
      propertyPath: m_SizeDelta.x
      value: 0
      objectReference: {fileID: 0}
    - target: {fileID: 4760450523440431310, guid: 9f83b4029f4b8bf48933ffe33ed0dd3e, type: 3}
      propertyPath: m_SizeDelta.y
      value: 0
      objectReference: {fileID: 0}
    - target: {fileID: 4760450523440431310, guid: 9f83b4029f4b8bf48933ffe33ed0dd3e, type: 3}
      propertyPath: m_AnchoredPosition.x
      value: 0
      objectReference: {fileID: 0}
    - target: {fileID: 4760450523440431310, guid: 9f83b4029f4b8bf48933ffe33ed0dd3e, type: 3}
      propertyPath: m_AnchoredPosition.y
      value: 0
      objectReference: {fileID: 0}
    - target: {fileID: 4760461005300671676, guid: 9f83b4029f4b8bf48933ffe33ed0dd3e, type: 3}
      propertyPath: m_AnchorMax.y
      value: 0
      objectReference: {fileID: 0}
    - target: {fileID: 4760461005300671676, guid: 9f83b4029f4b8bf48933ffe33ed0dd3e, type: 3}
      propertyPath: m_AnchorMin.y
      value: 0
      objectReference: {fileID: 0}
    - target: {fileID: 4760461005300671676, guid: 9f83b4029f4b8bf48933ffe33ed0dd3e, type: 3}
      propertyPath: m_SizeDelta.x
      value: 0
      objectReference: {fileID: 0}
    - target: {fileID: 4760461005300671676, guid: 9f83b4029f4b8bf48933ffe33ed0dd3e, type: 3}
      propertyPath: m_SizeDelta.y
      value: 0
      objectReference: {fileID: 0}
    - target: {fileID: 4760461005300671676, guid: 9f83b4029f4b8bf48933ffe33ed0dd3e, type: 3}
      propertyPath: m_AnchoredPosition.x
      value: 0
      objectReference: {fileID: 0}
    - target: {fileID: 4760461005300671676, guid: 9f83b4029f4b8bf48933ffe33ed0dd3e, type: 3}
      propertyPath: m_AnchoredPosition.y
      value: 0
      objectReference: {fileID: 0}
    - target: {fileID: 4760495587212496606, guid: 9f83b4029f4b8bf48933ffe33ed0dd3e, type: 3}
      propertyPath: m_AnchorMax.y
      value: 0
      objectReference: {fileID: 0}
    - target: {fileID: 4760495587212496606, guid: 9f83b4029f4b8bf48933ffe33ed0dd3e, type: 3}
      propertyPath: m_AnchorMin.y
      value: 0
      objectReference: {fileID: 0}
    - target: {fileID: 4760495587212496606, guid: 9f83b4029f4b8bf48933ffe33ed0dd3e, type: 3}
      propertyPath: m_SizeDelta.x
      value: 0
      objectReference: {fileID: 0}
    - target: {fileID: 4760495587212496606, guid: 9f83b4029f4b8bf48933ffe33ed0dd3e, type: 3}
      propertyPath: m_SizeDelta.y
      value: 0
      objectReference: {fileID: 0}
    - target: {fileID: 4760495587212496606, guid: 9f83b4029f4b8bf48933ffe33ed0dd3e, type: 3}
      propertyPath: m_AnchoredPosition.x
      value: 0
      objectReference: {fileID: 0}
    - target: {fileID: 4760495587212496606, guid: 9f83b4029f4b8bf48933ffe33ed0dd3e, type: 3}
      propertyPath: m_AnchoredPosition.y
      value: 0
      objectReference: {fileID: 0}
    - target: {fileID: 4760578790198908024, guid: 9f83b4029f4b8bf48933ffe33ed0dd3e, type: 3}
      propertyPath: m_AnchorMax.y
      value: 0
      objectReference: {fileID: 0}
    - target: {fileID: 4760578790198908024, guid: 9f83b4029f4b8bf48933ffe33ed0dd3e, type: 3}
      propertyPath: m_AnchorMin.y
      value: 0
      objectReference: {fileID: 0}
    - target: {fileID: 4760578790198908024, guid: 9f83b4029f4b8bf48933ffe33ed0dd3e, type: 3}
      propertyPath: m_SizeDelta.x
      value: 0
      objectReference: {fileID: 0}
    - target: {fileID: 4760578790198908024, guid: 9f83b4029f4b8bf48933ffe33ed0dd3e, type: 3}
      propertyPath: m_SizeDelta.y
      value: 0
      objectReference: {fileID: 0}
    - target: {fileID: 4760578790198908024, guid: 9f83b4029f4b8bf48933ffe33ed0dd3e, type: 3}
      propertyPath: m_AnchoredPosition.x
      value: 0
      objectReference: {fileID: 0}
    - target: {fileID: 4760578790198908024, guid: 9f83b4029f4b8bf48933ffe33ed0dd3e, type: 3}
      propertyPath: m_AnchoredPosition.y
      value: 0
      objectReference: {fileID: 0}
    - target: {fileID: 4760683776557751838, guid: 9f83b4029f4b8bf48933ffe33ed0dd3e, type: 3}
      propertyPath: m_AnchorMax.y
      value: 0
      objectReference: {fileID: 0}
    - target: {fileID: 4760683776557751838, guid: 9f83b4029f4b8bf48933ffe33ed0dd3e, type: 3}
      propertyPath: m_AnchorMin.y
      value: 0
      objectReference: {fileID: 0}
    - target: {fileID: 4760683776557751838, guid: 9f83b4029f4b8bf48933ffe33ed0dd3e, type: 3}
      propertyPath: m_SizeDelta.x
      value: 0
      objectReference: {fileID: 0}
    - target: {fileID: 4760683776557751838, guid: 9f83b4029f4b8bf48933ffe33ed0dd3e, type: 3}
      propertyPath: m_SizeDelta.y
      value: 0
      objectReference: {fileID: 0}
    - target: {fileID: 4760683776557751838, guid: 9f83b4029f4b8bf48933ffe33ed0dd3e, type: 3}
      propertyPath: m_AnchoredPosition.x
      value: 0
      objectReference: {fileID: 0}
    - target: {fileID: 4760683776557751838, guid: 9f83b4029f4b8bf48933ffe33ed0dd3e, type: 3}
      propertyPath: m_AnchoredPosition.y
      value: 0
      objectReference: {fileID: 0}
    - target: {fileID: 4760689008345574182, guid: 9f83b4029f4b8bf48933ffe33ed0dd3e, type: 3}
      propertyPath: m_AnchorMax.x
      value: 0
      objectReference: {fileID: 0}
    - target: {fileID: 4760689008345574182, guid: 9f83b4029f4b8bf48933ffe33ed0dd3e, type: 3}
      propertyPath: m_AnchorMax.y
      value: 0
      objectReference: {fileID: 0}
    - target: {fileID: 4760689008345574182, guid: 9f83b4029f4b8bf48933ffe33ed0dd3e, type: 3}
      propertyPath: m_SizeDelta.x
      value: 0
      objectReference: {fileID: 0}
    - target: {fileID: 4760696863062697494, guid: 9f83b4029f4b8bf48933ffe33ed0dd3e, type: 3}
      propertyPath: m_AnchorMax.y
      value: 0
      objectReference: {fileID: 0}
    - target: {fileID: 4760696863062697494, guid: 9f83b4029f4b8bf48933ffe33ed0dd3e, type: 3}
      propertyPath: m_AnchorMin.y
      value: 0
      objectReference: {fileID: 0}
    - target: {fileID: 4760696863062697494, guid: 9f83b4029f4b8bf48933ffe33ed0dd3e, type: 3}
      propertyPath: m_SizeDelta.x
      value: 0
      objectReference: {fileID: 0}
    - target: {fileID: 4760696863062697494, guid: 9f83b4029f4b8bf48933ffe33ed0dd3e, type: 3}
      propertyPath: m_SizeDelta.y
      value: 0
      objectReference: {fileID: 0}
    - target: {fileID: 4760696863062697494, guid: 9f83b4029f4b8bf48933ffe33ed0dd3e, type: 3}
      propertyPath: m_AnchoredPosition.x
      value: 0
      objectReference: {fileID: 0}
    - target: {fileID: 4760696863062697494, guid: 9f83b4029f4b8bf48933ffe33ed0dd3e, type: 3}
      propertyPath: m_AnchoredPosition.y
      value: 0
      objectReference: {fileID: 0}
    - target: {fileID: 4760697281274336610, guid: 9f83b4029f4b8bf48933ffe33ed0dd3e, type: 3}
      propertyPath: m_AnchorMax.y
      value: 0
      objectReference: {fileID: 0}
    - target: {fileID: 4760697281274336610, guid: 9f83b4029f4b8bf48933ffe33ed0dd3e, type: 3}
      propertyPath: m_AnchorMin.y
      value: 0
      objectReference: {fileID: 0}
    - target: {fileID: 4760697281274336610, guid: 9f83b4029f4b8bf48933ffe33ed0dd3e, type: 3}
      propertyPath: m_SizeDelta.x
      value: 0
      objectReference: {fileID: 0}
    - target: {fileID: 4760697281274336610, guid: 9f83b4029f4b8bf48933ffe33ed0dd3e, type: 3}
      propertyPath: m_SizeDelta.y
      value: 0
      objectReference: {fileID: 0}
    - target: {fileID: 4760697281274336610, guid: 9f83b4029f4b8bf48933ffe33ed0dd3e, type: 3}
      propertyPath: m_AnchoredPosition.x
      value: 0
      objectReference: {fileID: 0}
    - target: {fileID: 4760697281274336610, guid: 9f83b4029f4b8bf48933ffe33ed0dd3e, type: 3}
      propertyPath: m_AnchoredPosition.y
      value: 0
      objectReference: {fileID: 0}
    - target: {fileID: 4760899112133599428, guid: 9f83b4029f4b8bf48933ffe33ed0dd3e, type: 3}
      propertyPath: m_AnchorMax.x
      value: 0
      objectReference: {fileID: 0}
    - target: {fileID: 4760899112133599428, guid: 9f83b4029f4b8bf48933ffe33ed0dd3e, type: 3}
      propertyPath: m_AnchorMax.y
      value: 0
      objectReference: {fileID: 0}
    - target: {fileID: 4760899112133599428, guid: 9f83b4029f4b8bf48933ffe33ed0dd3e, type: 3}
      propertyPath: m_AnchorMin.y
      value: 0
      objectReference: {fileID: 0}
    - target: {fileID: 4760899112133599428, guid: 9f83b4029f4b8bf48933ffe33ed0dd3e, type: 3}
      propertyPath: m_AnchoredPosition.x
      value: -0.00008010864
      objectReference: {fileID: 0}
    - target: {fileID: 4760899112133599428, guid: 9f83b4029f4b8bf48933ffe33ed0dd3e, type: 3}
      propertyPath: m_AnchoredPosition.y
      value: -0.8499756
      objectReference: {fileID: 0}
    - target: {fileID: 4760937435665305516, guid: 9f83b4029f4b8bf48933ffe33ed0dd3e, type: 3}
      propertyPath: m_AnchorMax.y
      value: 0
      objectReference: {fileID: 0}
    - target: {fileID: 4760937435665305516, guid: 9f83b4029f4b8bf48933ffe33ed0dd3e, type: 3}
      propertyPath: m_AnchorMin.y
      value: 0
      objectReference: {fileID: 0}
    - target: {fileID: 4760937435665305516, guid: 9f83b4029f4b8bf48933ffe33ed0dd3e, type: 3}
      propertyPath: m_SizeDelta.x
      value: 0
      objectReference: {fileID: 0}
    - target: {fileID: 4760937435665305516, guid: 9f83b4029f4b8bf48933ffe33ed0dd3e, type: 3}
      propertyPath: m_SizeDelta.y
      value: 0
      objectReference: {fileID: 0}
    - target: {fileID: 4760937435665305516, guid: 9f83b4029f4b8bf48933ffe33ed0dd3e, type: 3}
      propertyPath: m_AnchoredPosition.x
      value: 0
      objectReference: {fileID: 0}
    - target: {fileID: 4760937435665305516, guid: 9f83b4029f4b8bf48933ffe33ed0dd3e, type: 3}
      propertyPath: m_AnchoredPosition.y
      value: 0
      objectReference: {fileID: 0}
    - target: {fileID: 4760986090111430132, guid: 9f83b4029f4b8bf48933ffe33ed0dd3e, type: 3}
      propertyPath: m_AnchorMax.y
      value: 0
      objectReference: {fileID: 0}
    - target: {fileID: 4760986090111430132, guid: 9f83b4029f4b8bf48933ffe33ed0dd3e, type: 3}
      propertyPath: m_AnchorMin.y
      value: 0
      objectReference: {fileID: 0}
    - target: {fileID: 4760986090111430132, guid: 9f83b4029f4b8bf48933ffe33ed0dd3e, type: 3}
      propertyPath: m_SizeDelta.x
      value: 0
      objectReference: {fileID: 0}
    - target: {fileID: 4760986090111430132, guid: 9f83b4029f4b8bf48933ffe33ed0dd3e, type: 3}
      propertyPath: m_SizeDelta.y
      value: 0
      objectReference: {fileID: 0}
    - target: {fileID: 4760986090111430132, guid: 9f83b4029f4b8bf48933ffe33ed0dd3e, type: 3}
      propertyPath: m_AnchoredPosition.x
      value: 0
      objectReference: {fileID: 0}
    - target: {fileID: 4760986090111430132, guid: 9f83b4029f4b8bf48933ffe33ed0dd3e, type: 3}
      propertyPath: m_AnchoredPosition.y
      value: 0
      objectReference: {fileID: 0}
    - target: {fileID: 4760992173150345452, guid: 9f83b4029f4b8bf48933ffe33ed0dd3e, type: 3}
      propertyPath: m_AnchorMax.y
      value: 0
      objectReference: {fileID: 0}
    - target: {fileID: 4760992173150345452, guid: 9f83b4029f4b8bf48933ffe33ed0dd3e, type: 3}
      propertyPath: m_AnchorMin.y
      value: 0
      objectReference: {fileID: 0}
    - target: {fileID: 4760992173150345452, guid: 9f83b4029f4b8bf48933ffe33ed0dd3e, type: 3}
      propertyPath: m_SizeDelta.x
      value: 0
      objectReference: {fileID: 0}
    - target: {fileID: 4760992173150345452, guid: 9f83b4029f4b8bf48933ffe33ed0dd3e, type: 3}
      propertyPath: m_SizeDelta.y
      value: 0
      objectReference: {fileID: 0}
    - target: {fileID: 4760992173150345452, guid: 9f83b4029f4b8bf48933ffe33ed0dd3e, type: 3}
      propertyPath: m_AnchoredPosition.x
      value: 0
      objectReference: {fileID: 0}
    - target: {fileID: 4760992173150345452, guid: 9f83b4029f4b8bf48933ffe33ed0dd3e, type: 3}
      propertyPath: m_AnchoredPosition.y
      value: 0
      objectReference: {fileID: 0}
    - target: {fileID: 4761000799689040088, guid: 9f83b4029f4b8bf48933ffe33ed0dd3e, type: 3}
      propertyPath: m_AnchorMax.y
      value: 0
      objectReference: {fileID: 0}
    - target: {fileID: 4761000799689040088, guid: 9f83b4029f4b8bf48933ffe33ed0dd3e, type: 3}
      propertyPath: m_AnchorMin.y
      value: 0
      objectReference: {fileID: 0}
    - target: {fileID: 4761000799689040088, guid: 9f83b4029f4b8bf48933ffe33ed0dd3e, type: 3}
      propertyPath: m_SizeDelta.x
      value: 0
      objectReference: {fileID: 0}
    - target: {fileID: 4761000799689040088, guid: 9f83b4029f4b8bf48933ffe33ed0dd3e, type: 3}
      propertyPath: m_SizeDelta.y
      value: 0
      objectReference: {fileID: 0}
    - target: {fileID: 4761000799689040088, guid: 9f83b4029f4b8bf48933ffe33ed0dd3e, type: 3}
      propertyPath: m_AnchoredPosition.x
      value: 0
      objectReference: {fileID: 0}
    - target: {fileID: 4761000799689040088, guid: 9f83b4029f4b8bf48933ffe33ed0dd3e, type: 3}
      propertyPath: m_AnchoredPosition.y
      value: 0
      objectReference: {fileID: 0}
    - target: {fileID: 4761022577795916442, guid: 9f83b4029f4b8bf48933ffe33ed0dd3e, type: 3}
      propertyPath: m_AnchorMax.y
      value: 0
      objectReference: {fileID: 0}
    - target: {fileID: 4761022577795916442, guid: 9f83b4029f4b8bf48933ffe33ed0dd3e, type: 3}
      propertyPath: m_AnchorMin.y
      value: 0
      objectReference: {fileID: 0}
    - target: {fileID: 4761022577795916442, guid: 9f83b4029f4b8bf48933ffe33ed0dd3e, type: 3}
      propertyPath: m_SizeDelta.x
      value: 0
      objectReference: {fileID: 0}
    - target: {fileID: 4761022577795916442, guid: 9f83b4029f4b8bf48933ffe33ed0dd3e, type: 3}
      propertyPath: m_SizeDelta.y
      value: 0
      objectReference: {fileID: 0}
    - target: {fileID: 4761022577795916442, guid: 9f83b4029f4b8bf48933ffe33ed0dd3e, type: 3}
      propertyPath: m_AnchoredPosition.x
      value: 0
      objectReference: {fileID: 0}
    - target: {fileID: 4761022577795916442, guid: 9f83b4029f4b8bf48933ffe33ed0dd3e, type: 3}
      propertyPath: m_AnchoredPosition.y
      value: 0
      objectReference: {fileID: 0}
    - target: {fileID: 4761023497900002984, guid: 9f83b4029f4b8bf48933ffe33ed0dd3e, type: 3}
      propertyPath: m_AnchorMax.y
      value: 0
      objectReference: {fileID: 0}
    - target: {fileID: 4761023497900002984, guid: 9f83b4029f4b8bf48933ffe33ed0dd3e, type: 3}
      propertyPath: m_AnchorMin.y
      value: 0
      objectReference: {fileID: 0}
    - target: {fileID: 4761023497900002984, guid: 9f83b4029f4b8bf48933ffe33ed0dd3e, type: 3}
      propertyPath: m_SizeDelta.x
      value: 0
      objectReference: {fileID: 0}
    - target: {fileID: 4761023497900002984, guid: 9f83b4029f4b8bf48933ffe33ed0dd3e, type: 3}
      propertyPath: m_SizeDelta.y
      value: 0
      objectReference: {fileID: 0}
    - target: {fileID: 4761023497900002984, guid: 9f83b4029f4b8bf48933ffe33ed0dd3e, type: 3}
      propertyPath: m_AnchoredPosition.x
      value: 0
      objectReference: {fileID: 0}
    - target: {fileID: 4761023497900002984, guid: 9f83b4029f4b8bf48933ffe33ed0dd3e, type: 3}
      propertyPath: m_AnchoredPosition.y
      value: 0
      objectReference: {fileID: 0}
    - target: {fileID: 4761027119201450532, guid: 9f83b4029f4b8bf48933ffe33ed0dd3e, type: 3}
      propertyPath: m_AnchorMax.y
      value: 0
      objectReference: {fileID: 0}
    - target: {fileID: 4761027119201450532, guid: 9f83b4029f4b8bf48933ffe33ed0dd3e, type: 3}
      propertyPath: m_AnchorMin.y
      value: 0
      objectReference: {fileID: 0}
    - target: {fileID: 4761027119201450532, guid: 9f83b4029f4b8bf48933ffe33ed0dd3e, type: 3}
      propertyPath: m_SizeDelta.x
      value: 0
      objectReference: {fileID: 0}
    - target: {fileID: 4761027119201450532, guid: 9f83b4029f4b8bf48933ffe33ed0dd3e, type: 3}
      propertyPath: m_SizeDelta.y
      value: 0
      objectReference: {fileID: 0}
    - target: {fileID: 4761027119201450532, guid: 9f83b4029f4b8bf48933ffe33ed0dd3e, type: 3}
      propertyPath: m_AnchoredPosition.x
      value: 0
      objectReference: {fileID: 0}
    - target: {fileID: 4761027119201450532, guid: 9f83b4029f4b8bf48933ffe33ed0dd3e, type: 3}
      propertyPath: m_AnchoredPosition.y
      value: 0
      objectReference: {fileID: 0}
    - target: {fileID: 4761034669132120140, guid: 9f83b4029f4b8bf48933ffe33ed0dd3e, type: 3}
      propertyPath: m_AnchorMax.y
      value: 0
      objectReference: {fileID: 0}
    - target: {fileID: 4761034669132120140, guid: 9f83b4029f4b8bf48933ffe33ed0dd3e, type: 3}
      propertyPath: m_AnchorMin.y
      value: 0
      objectReference: {fileID: 0}
    - target: {fileID: 4761034669132120140, guid: 9f83b4029f4b8bf48933ffe33ed0dd3e, type: 3}
      propertyPath: m_SizeDelta.x
      value: 0
      objectReference: {fileID: 0}
    - target: {fileID: 4761034669132120140, guid: 9f83b4029f4b8bf48933ffe33ed0dd3e, type: 3}
      propertyPath: m_SizeDelta.y
      value: 0
      objectReference: {fileID: 0}
    - target: {fileID: 4761034669132120140, guid: 9f83b4029f4b8bf48933ffe33ed0dd3e, type: 3}
      propertyPath: m_AnchoredPosition.x
      value: 0
      objectReference: {fileID: 0}
    - target: {fileID: 4761034669132120140, guid: 9f83b4029f4b8bf48933ffe33ed0dd3e, type: 3}
      propertyPath: m_AnchoredPosition.y
      value: 0
      objectReference: {fileID: 0}
    - target: {fileID: 4761073212338488940, guid: 9f83b4029f4b8bf48933ffe33ed0dd3e, type: 3}
      propertyPath: m_AnchorMax.y
      value: 0
      objectReference: {fileID: 0}
    - target: {fileID: 4761073212338488940, guid: 9f83b4029f4b8bf48933ffe33ed0dd3e, type: 3}
      propertyPath: m_AnchorMin.y
      value: 0
      objectReference: {fileID: 0}
    - target: {fileID: 4761073212338488940, guid: 9f83b4029f4b8bf48933ffe33ed0dd3e, type: 3}
      propertyPath: m_SizeDelta.x
      value: 0
      objectReference: {fileID: 0}
    - target: {fileID: 4761073212338488940, guid: 9f83b4029f4b8bf48933ffe33ed0dd3e, type: 3}
      propertyPath: m_SizeDelta.y
      value: 0
      objectReference: {fileID: 0}
    - target: {fileID: 4761073212338488940, guid: 9f83b4029f4b8bf48933ffe33ed0dd3e, type: 3}
      propertyPath: m_AnchoredPosition.x
      value: 0
      objectReference: {fileID: 0}
    - target: {fileID: 4761073212338488940, guid: 9f83b4029f4b8bf48933ffe33ed0dd3e, type: 3}
      propertyPath: m_AnchoredPosition.y
      value: 0
      objectReference: {fileID: 0}
    - target: {fileID: 4761077941080781924, guid: 9f83b4029f4b8bf48933ffe33ed0dd3e, type: 3}
      propertyPath: m_AnchorMax.y
      value: 0
      objectReference: {fileID: 0}
    - target: {fileID: 4761077941080781924, guid: 9f83b4029f4b8bf48933ffe33ed0dd3e, type: 3}
      propertyPath: m_AnchorMin.y
      value: 0
      objectReference: {fileID: 0}
    - target: {fileID: 4761077941080781924, guid: 9f83b4029f4b8bf48933ffe33ed0dd3e, type: 3}
      propertyPath: m_SizeDelta.x
      value: 0
      objectReference: {fileID: 0}
    - target: {fileID: 4761077941080781924, guid: 9f83b4029f4b8bf48933ffe33ed0dd3e, type: 3}
      propertyPath: m_SizeDelta.y
      value: 0
      objectReference: {fileID: 0}
    - target: {fileID: 4761077941080781924, guid: 9f83b4029f4b8bf48933ffe33ed0dd3e, type: 3}
      propertyPath: m_AnchoredPosition.x
      value: 0
      objectReference: {fileID: 0}
    - target: {fileID: 4761077941080781924, guid: 9f83b4029f4b8bf48933ffe33ed0dd3e, type: 3}
      propertyPath: m_AnchoredPosition.y
      value: 0
      objectReference: {fileID: 0}
    - target: {fileID: 4761123416207656890, guid: 9f83b4029f4b8bf48933ffe33ed0dd3e, type: 3}
      propertyPath: m_AnchoredPosition.x
      value: -0.15000916
      objectReference: {fileID: 0}
    - target: {fileID: 4761123416207656890, guid: 9f83b4029f4b8bf48933ffe33ed0dd3e, type: 3}
      propertyPath: m_AnchoredPosition.y
      value: 0
      objectReference: {fileID: 0}
    - target: {fileID: 4761140863126069416, guid: 9f83b4029f4b8bf48933ffe33ed0dd3e, type: 3}
      propertyPath: m_AnchorMax.y
      value: 0
      objectReference: {fileID: 0}
    - target: {fileID: 4761140863126069416, guid: 9f83b4029f4b8bf48933ffe33ed0dd3e, type: 3}
      propertyPath: m_AnchorMin.y
      value: 0
      objectReference: {fileID: 0}
    - target: {fileID: 4761140863126069416, guid: 9f83b4029f4b8bf48933ffe33ed0dd3e, type: 3}
      propertyPath: m_SizeDelta.x
      value: 0
      objectReference: {fileID: 0}
    - target: {fileID: 4761140863126069416, guid: 9f83b4029f4b8bf48933ffe33ed0dd3e, type: 3}
      propertyPath: m_SizeDelta.y
      value: 0
      objectReference: {fileID: 0}
    - target: {fileID: 4761140863126069416, guid: 9f83b4029f4b8bf48933ffe33ed0dd3e, type: 3}
      propertyPath: m_AnchoredPosition.x
      value: 0
      objectReference: {fileID: 0}
    - target: {fileID: 4761140863126069416, guid: 9f83b4029f4b8bf48933ffe33ed0dd3e, type: 3}
      propertyPath: m_AnchoredPosition.y
      value: 0
      objectReference: {fileID: 0}
    - target: {fileID: 4761210269599317590, guid: 9f83b4029f4b8bf48933ffe33ed0dd3e, type: 3}
      propertyPath: m_AnchorMax.y
      value: 0
      objectReference: {fileID: 0}
    - target: {fileID: 4761210269599317590, guid: 9f83b4029f4b8bf48933ffe33ed0dd3e, type: 3}
      propertyPath: m_AnchorMin.y
      value: 0
      objectReference: {fileID: 0}
    - target: {fileID: 4761210269599317590, guid: 9f83b4029f4b8bf48933ffe33ed0dd3e, type: 3}
      propertyPath: m_SizeDelta.x
      value: 0
      objectReference: {fileID: 0}
    - target: {fileID: 4761210269599317590, guid: 9f83b4029f4b8bf48933ffe33ed0dd3e, type: 3}
      propertyPath: m_SizeDelta.y
      value: 0
      objectReference: {fileID: 0}
    - target: {fileID: 4761210269599317590, guid: 9f83b4029f4b8bf48933ffe33ed0dd3e, type: 3}
      propertyPath: m_AnchoredPosition.x
      value: 0
      objectReference: {fileID: 0}
    - target: {fileID: 4761210269599317590, guid: 9f83b4029f4b8bf48933ffe33ed0dd3e, type: 3}
      propertyPath: m_AnchoredPosition.y
      value: 0
      objectReference: {fileID: 0}
    - target: {fileID: 4761224670759172484, guid: 9f83b4029f4b8bf48933ffe33ed0dd3e, type: 3}
      propertyPath: m_SizeDelta.y
      value: 0
      objectReference: {fileID: 0}
    - target: {fileID: 4761224670759172484, guid: 9f83b4029f4b8bf48933ffe33ed0dd3e, type: 3}
      propertyPath: m_AnchoredPosition.y
      value: 0
      objectReference: {fileID: 0}
    - target: {fileID: 4761228750926741750, guid: 9f83b4029f4b8bf48933ffe33ed0dd3e, type: 3}
      propertyPath: m_AnchorMax.y
      value: 0
      objectReference: {fileID: 0}
    - target: {fileID: 4761228750926741750, guid: 9f83b4029f4b8bf48933ffe33ed0dd3e, type: 3}
      propertyPath: m_AnchorMin.y
      value: 0
      objectReference: {fileID: 0}
    - target: {fileID: 4761228750926741750, guid: 9f83b4029f4b8bf48933ffe33ed0dd3e, type: 3}
      propertyPath: m_SizeDelta.x
      value: 0
      objectReference: {fileID: 0}
    - target: {fileID: 4761228750926741750, guid: 9f83b4029f4b8bf48933ffe33ed0dd3e, type: 3}
      propertyPath: m_SizeDelta.y
      value: 0
      objectReference: {fileID: 0}
    - target: {fileID: 4761228750926741750, guid: 9f83b4029f4b8bf48933ffe33ed0dd3e, type: 3}
      propertyPath: m_AnchoredPosition.x
      value: 0
      objectReference: {fileID: 0}
    - target: {fileID: 4761228750926741750, guid: 9f83b4029f4b8bf48933ffe33ed0dd3e, type: 3}
      propertyPath: m_AnchoredPosition.y
      value: 0
      objectReference: {fileID: 0}
    - target: {fileID: 4761250487335307966, guid: 9f83b4029f4b8bf48933ffe33ed0dd3e, type: 3}
      propertyPath: m_AnchorMax.y
      value: 0
      objectReference: {fileID: 0}
    - target: {fileID: 4761250487335307966, guid: 9f83b4029f4b8bf48933ffe33ed0dd3e, type: 3}
      propertyPath: m_AnchorMin.y
      value: 0
      objectReference: {fileID: 0}
    - target: {fileID: 4761250487335307966, guid: 9f83b4029f4b8bf48933ffe33ed0dd3e, type: 3}
      propertyPath: m_SizeDelta.x
      value: 0
      objectReference: {fileID: 0}
    - target: {fileID: 4761250487335307966, guid: 9f83b4029f4b8bf48933ffe33ed0dd3e, type: 3}
      propertyPath: m_SizeDelta.y
      value: 0
      objectReference: {fileID: 0}
    - target: {fileID: 4761250487335307966, guid: 9f83b4029f4b8bf48933ffe33ed0dd3e, type: 3}
      propertyPath: m_AnchoredPosition.x
      value: 0
      objectReference: {fileID: 0}
    - target: {fileID: 4761250487335307966, guid: 9f83b4029f4b8bf48933ffe33ed0dd3e, type: 3}
      propertyPath: m_AnchoredPosition.y
      value: 0
      objectReference: {fileID: 0}
    - target: {fileID: 4836405096381868520, guid: 9f83b4029f4b8bf48933ffe33ed0dd3e, type: 3}
      propertyPath: m_AnchorMax.y
      value: 0
      objectReference: {fileID: 0}
    - target: {fileID: 4836405096381868520, guid: 9f83b4029f4b8bf48933ffe33ed0dd3e, type: 3}
      propertyPath: m_AnchorMin.y
      value: 0
      objectReference: {fileID: 0}
    - target: {fileID: 4836405096381868520, guid: 9f83b4029f4b8bf48933ffe33ed0dd3e, type: 3}
      propertyPath: m_SizeDelta.x
      value: 0
      objectReference: {fileID: 0}
    - target: {fileID: 4836405096381868520, guid: 9f83b4029f4b8bf48933ffe33ed0dd3e, type: 3}
      propertyPath: m_SizeDelta.y
      value: 0
      objectReference: {fileID: 0}
    - target: {fileID: 4836405096381868520, guid: 9f83b4029f4b8bf48933ffe33ed0dd3e, type: 3}
      propertyPath: m_AnchoredPosition.x
      value: 0
      objectReference: {fileID: 0}
    - target: {fileID: 4836405096381868520, guid: 9f83b4029f4b8bf48933ffe33ed0dd3e, type: 3}
      propertyPath: m_AnchoredPosition.y
      value: 0
      objectReference: {fileID: 0}
    - target: {fileID: 4886438711360250132, guid: 9f83b4029f4b8bf48933ffe33ed0dd3e, type: 3}
      propertyPath: m_AnchorMax.y
      value: 0
      objectReference: {fileID: 0}
    - target: {fileID: 4886438711360250132, guid: 9f83b4029f4b8bf48933ffe33ed0dd3e, type: 3}
      propertyPath: m_AnchorMin.y
      value: 0
      objectReference: {fileID: 0}
    - target: {fileID: 4886438711360250132, guid: 9f83b4029f4b8bf48933ffe33ed0dd3e, type: 3}
      propertyPath: m_SizeDelta.x
      value: 0
      objectReference: {fileID: 0}
    - target: {fileID: 4886438711360250132, guid: 9f83b4029f4b8bf48933ffe33ed0dd3e, type: 3}
      propertyPath: m_SizeDelta.y
      value: 0
      objectReference: {fileID: 0}
    - target: {fileID: 4886438711360250132, guid: 9f83b4029f4b8bf48933ffe33ed0dd3e, type: 3}
      propertyPath: m_AnchoredPosition.x
      value: 0
      objectReference: {fileID: 0}
    - target: {fileID: 4886438711360250132, guid: 9f83b4029f4b8bf48933ffe33ed0dd3e, type: 3}
      propertyPath: m_AnchoredPosition.y
      value: 0
      objectReference: {fileID: 0}
    - target: {fileID: 5136709392580749132, guid: 9f83b4029f4b8bf48933ffe33ed0dd3e, type: 3}
      propertyPath: m_AnchorMax.y
      value: 0
      objectReference: {fileID: 0}
    - target: {fileID: 5136709392580749132, guid: 9f83b4029f4b8bf48933ffe33ed0dd3e, type: 3}
      propertyPath: m_AnchorMin.y
      value: 0
      objectReference: {fileID: 0}
    - target: {fileID: 5136709392580749132, guid: 9f83b4029f4b8bf48933ffe33ed0dd3e, type: 3}
      propertyPath: m_SizeDelta.x
      value: 0
      objectReference: {fileID: 0}
    - target: {fileID: 5136709392580749132, guid: 9f83b4029f4b8bf48933ffe33ed0dd3e, type: 3}
      propertyPath: m_SizeDelta.y
      value: 0
      objectReference: {fileID: 0}
    - target: {fileID: 5136709392580749132, guid: 9f83b4029f4b8bf48933ffe33ed0dd3e, type: 3}
      propertyPath: m_AnchoredPosition.x
      value: 0
      objectReference: {fileID: 0}
    - target: {fileID: 5136709392580749132, guid: 9f83b4029f4b8bf48933ffe33ed0dd3e, type: 3}
      propertyPath: m_AnchoredPosition.y
      value: 0
      objectReference: {fileID: 0}
    - target: {fileID: 5163160757899026567, guid: 9f83b4029f4b8bf48933ffe33ed0dd3e, type: 3}
      propertyPath: m_AnchorMax.y
      value: 0
      objectReference: {fileID: 0}
    - target: {fileID: 5163160757899026567, guid: 9f83b4029f4b8bf48933ffe33ed0dd3e, type: 3}
      propertyPath: m_AnchorMin.y
      value: 0
      objectReference: {fileID: 0}
    - target: {fileID: 5163160757899026567, guid: 9f83b4029f4b8bf48933ffe33ed0dd3e, type: 3}
      propertyPath: m_SizeDelta.x
      value: 0
      objectReference: {fileID: 0}
    - target: {fileID: 5163160757899026567, guid: 9f83b4029f4b8bf48933ffe33ed0dd3e, type: 3}
      propertyPath: m_SizeDelta.y
      value: 0
      objectReference: {fileID: 0}
    - target: {fileID: 5163160757899026567, guid: 9f83b4029f4b8bf48933ffe33ed0dd3e, type: 3}
      propertyPath: m_AnchoredPosition.x
      value: 0
      objectReference: {fileID: 0}
    - target: {fileID: 5163160757899026567, guid: 9f83b4029f4b8bf48933ffe33ed0dd3e, type: 3}
      propertyPath: m_AnchoredPosition.y
      value: 0
      objectReference: {fileID: 0}
    - target: {fileID: 5771907406925082984, guid: 9f83b4029f4b8bf48933ffe33ed0dd3e, type: 3}
      propertyPath: m_AnchorMax.y
      value: 0
      objectReference: {fileID: 0}
    - target: {fileID: 5771907406925082984, guid: 9f83b4029f4b8bf48933ffe33ed0dd3e, type: 3}
      propertyPath: m_AnchorMin.y
      value: 0
      objectReference: {fileID: 0}
    - target: {fileID: 5771907406925082984, guid: 9f83b4029f4b8bf48933ffe33ed0dd3e, type: 3}
      propertyPath: m_SizeDelta.x
      value: 0
      objectReference: {fileID: 0}
    - target: {fileID: 5771907406925082984, guid: 9f83b4029f4b8bf48933ffe33ed0dd3e, type: 3}
      propertyPath: m_SizeDelta.y
      value: 0
      objectReference: {fileID: 0}
    - target: {fileID: 5771907406925082984, guid: 9f83b4029f4b8bf48933ffe33ed0dd3e, type: 3}
      propertyPath: m_AnchoredPosition.x
      value: 0
      objectReference: {fileID: 0}
    - target: {fileID: 5771907406925082984, guid: 9f83b4029f4b8bf48933ffe33ed0dd3e, type: 3}
      propertyPath: m_AnchoredPosition.y
      value: 0
      objectReference: {fileID: 0}
    - target: {fileID: 5974223300105612348, guid: 9f83b4029f4b8bf48933ffe33ed0dd3e, type: 3}
      propertyPath: m_AnchorMax.y
      value: 0
      objectReference: {fileID: 0}
    - target: {fileID: 5974223300105612348, guid: 9f83b4029f4b8bf48933ffe33ed0dd3e, type: 3}
      propertyPath: m_AnchorMin.y
      value: 0
      objectReference: {fileID: 0}
    - target: {fileID: 5974223300105612348, guid: 9f83b4029f4b8bf48933ffe33ed0dd3e, type: 3}
      propertyPath: m_SizeDelta.x
      value: 0
      objectReference: {fileID: 0}
    - target: {fileID: 5974223300105612348, guid: 9f83b4029f4b8bf48933ffe33ed0dd3e, type: 3}
      propertyPath: m_SizeDelta.y
      value: 0
      objectReference: {fileID: 0}
    - target: {fileID: 5974223300105612348, guid: 9f83b4029f4b8bf48933ffe33ed0dd3e, type: 3}
      propertyPath: m_AnchoredPosition.x
      value: 0
      objectReference: {fileID: 0}
    - target: {fileID: 5974223300105612348, guid: 9f83b4029f4b8bf48933ffe33ed0dd3e, type: 3}
      propertyPath: m_AnchoredPosition.y
      value: 0
      objectReference: {fileID: 0}
    - target: {fileID: 6130370502771371000, guid: 9f83b4029f4b8bf48933ffe33ed0dd3e, type: 3}
      propertyPath: m_AnchorMax.y
      value: 0
      objectReference: {fileID: 0}
    - target: {fileID: 6130370502771371000, guid: 9f83b4029f4b8bf48933ffe33ed0dd3e, type: 3}
      propertyPath: m_AnchorMin.y
      value: 0
      objectReference: {fileID: 0}
    - target: {fileID: 6130370502771371000, guid: 9f83b4029f4b8bf48933ffe33ed0dd3e, type: 3}
      propertyPath: m_SizeDelta.x
      value: 0
      objectReference: {fileID: 0}
    - target: {fileID: 6130370502771371000, guid: 9f83b4029f4b8bf48933ffe33ed0dd3e, type: 3}
      propertyPath: m_SizeDelta.y
      value: 0
      objectReference: {fileID: 0}
    - target: {fileID: 6130370502771371000, guid: 9f83b4029f4b8bf48933ffe33ed0dd3e, type: 3}
      propertyPath: m_AnchoredPosition.x
      value: 0
      objectReference: {fileID: 0}
    - target: {fileID: 6130370502771371000, guid: 9f83b4029f4b8bf48933ffe33ed0dd3e, type: 3}
      propertyPath: m_AnchoredPosition.y
      value: 0
      objectReference: {fileID: 0}
    - target: {fileID: 6260204702640195849, guid: 9f83b4029f4b8bf48933ffe33ed0dd3e, type: 3}
      propertyPath: m_AnchorMax.y
      value: 0
      objectReference: {fileID: 0}
    - target: {fileID: 6260204702640195849, guid: 9f83b4029f4b8bf48933ffe33ed0dd3e, type: 3}
      propertyPath: m_AnchorMin.y
      value: 0
      objectReference: {fileID: 0}
    - target: {fileID: 6260204702640195849, guid: 9f83b4029f4b8bf48933ffe33ed0dd3e, type: 3}
      propertyPath: m_SizeDelta.x
      value: 0
      objectReference: {fileID: 0}
    - target: {fileID: 6260204702640195849, guid: 9f83b4029f4b8bf48933ffe33ed0dd3e, type: 3}
      propertyPath: m_SizeDelta.y
      value: 0
      objectReference: {fileID: 0}
    - target: {fileID: 6260204702640195849, guid: 9f83b4029f4b8bf48933ffe33ed0dd3e, type: 3}
      propertyPath: m_AnchoredPosition.x
      value: 0
      objectReference: {fileID: 0}
    - target: {fileID: 6260204702640195849, guid: 9f83b4029f4b8bf48933ffe33ed0dd3e, type: 3}
      propertyPath: m_AnchoredPosition.y
      value: 0
      objectReference: {fileID: 0}
    - target: {fileID: 6359932149502214283, guid: 9f83b4029f4b8bf48933ffe33ed0dd3e, type: 3}
      propertyPath: m_AnchorMax.y
      value: 0
      objectReference: {fileID: 0}
    - target: {fileID: 6359932149502214283, guid: 9f83b4029f4b8bf48933ffe33ed0dd3e, type: 3}
      propertyPath: m_AnchorMin.y
      value: 0
      objectReference: {fileID: 0}
    - target: {fileID: 6359932149502214283, guid: 9f83b4029f4b8bf48933ffe33ed0dd3e, type: 3}
      propertyPath: m_SizeDelta.x
      value: 0
      objectReference: {fileID: 0}
    - target: {fileID: 6359932149502214283, guid: 9f83b4029f4b8bf48933ffe33ed0dd3e, type: 3}
      propertyPath: m_SizeDelta.y
      value: 0
      objectReference: {fileID: 0}
    - target: {fileID: 6359932149502214283, guid: 9f83b4029f4b8bf48933ffe33ed0dd3e, type: 3}
      propertyPath: m_AnchoredPosition.x
      value: 0
      objectReference: {fileID: 0}
    - target: {fileID: 6359932149502214283, guid: 9f83b4029f4b8bf48933ffe33ed0dd3e, type: 3}
      propertyPath: m_AnchoredPosition.y
      value: 0
      objectReference: {fileID: 0}
    - target: {fileID: 6413625193069709023, guid: 9f83b4029f4b8bf48933ffe33ed0dd3e, type: 3}
      propertyPath: m_AnchorMax.y
      value: 0
      objectReference: {fileID: 0}
    - target: {fileID: 6413625193069709023, guid: 9f83b4029f4b8bf48933ffe33ed0dd3e, type: 3}
      propertyPath: m_AnchorMin.y
      value: 0
      objectReference: {fileID: 0}
    - target: {fileID: 6413625193069709023, guid: 9f83b4029f4b8bf48933ffe33ed0dd3e, type: 3}
      propertyPath: m_SizeDelta.x
      value: 0
      objectReference: {fileID: 0}
    - target: {fileID: 6413625193069709023, guid: 9f83b4029f4b8bf48933ffe33ed0dd3e, type: 3}
      propertyPath: m_SizeDelta.y
      value: 0
      objectReference: {fileID: 0}
    - target: {fileID: 6413625193069709023, guid: 9f83b4029f4b8bf48933ffe33ed0dd3e, type: 3}
      propertyPath: m_AnchoredPosition.x
      value: 0
      objectReference: {fileID: 0}
    - target: {fileID: 6413625193069709023, guid: 9f83b4029f4b8bf48933ffe33ed0dd3e, type: 3}
      propertyPath: m_AnchoredPosition.y
      value: 0
      objectReference: {fileID: 0}
    - target: {fileID: 7087520971765716288, guid: 9f83b4029f4b8bf48933ffe33ed0dd3e, type: 3}
      propertyPath: m_AnchorMax.y
      value: 0
      objectReference: {fileID: 0}
    - target: {fileID: 7087520971765716288, guid: 9f83b4029f4b8bf48933ffe33ed0dd3e, type: 3}
      propertyPath: m_AnchorMin.y
      value: 0
      objectReference: {fileID: 0}
    - target: {fileID: 7087520971765716288, guid: 9f83b4029f4b8bf48933ffe33ed0dd3e, type: 3}
      propertyPath: m_SizeDelta.x
      value: 0
      objectReference: {fileID: 0}
    - target: {fileID: 7087520971765716288, guid: 9f83b4029f4b8bf48933ffe33ed0dd3e, type: 3}
      propertyPath: m_SizeDelta.y
      value: 0
      objectReference: {fileID: 0}
    - target: {fileID: 7087520971765716288, guid: 9f83b4029f4b8bf48933ffe33ed0dd3e, type: 3}
      propertyPath: m_AnchoredPosition.x
      value: 0
      objectReference: {fileID: 0}
    - target: {fileID: 7087520971765716288, guid: 9f83b4029f4b8bf48933ffe33ed0dd3e, type: 3}
      propertyPath: m_AnchoredPosition.y
      value: 0
      objectReference: {fileID: 0}
    - target: {fileID: 7100647264522876373, guid: 9f83b4029f4b8bf48933ffe33ed0dd3e, type: 3}
      propertyPath: m_AnchorMax.y
      value: 0
      objectReference: {fileID: 0}
    - target: {fileID: 7100647264522876373, guid: 9f83b4029f4b8bf48933ffe33ed0dd3e, type: 3}
      propertyPath: m_AnchorMin.y
      value: 0
      objectReference: {fileID: 0}
    - target: {fileID: 7100647264522876373, guid: 9f83b4029f4b8bf48933ffe33ed0dd3e, type: 3}
      propertyPath: m_SizeDelta.x
      value: 0
      objectReference: {fileID: 0}
    - target: {fileID: 7100647264522876373, guid: 9f83b4029f4b8bf48933ffe33ed0dd3e, type: 3}
      propertyPath: m_SizeDelta.y
      value: 0
      objectReference: {fileID: 0}
    - target: {fileID: 7100647264522876373, guid: 9f83b4029f4b8bf48933ffe33ed0dd3e, type: 3}
      propertyPath: m_AnchoredPosition.x
      value: 0
      objectReference: {fileID: 0}
    - target: {fileID: 7100647264522876373, guid: 9f83b4029f4b8bf48933ffe33ed0dd3e, type: 3}
      propertyPath: m_AnchoredPosition.y
      value: 0
      objectReference: {fileID: 0}
    - target: {fileID: 7421169385556734239, guid: 9f83b4029f4b8bf48933ffe33ed0dd3e, type: 3}
      propertyPath: m_AnchorMax.y
      value: 0
      objectReference: {fileID: 0}
    - target: {fileID: 7421169385556734239, guid: 9f83b4029f4b8bf48933ffe33ed0dd3e, type: 3}
      propertyPath: m_AnchorMin.y
      value: 0
      objectReference: {fileID: 0}
    - target: {fileID: 7421169385556734239, guid: 9f83b4029f4b8bf48933ffe33ed0dd3e, type: 3}
      propertyPath: m_SizeDelta.x
      value: 0
      objectReference: {fileID: 0}
    - target: {fileID: 7421169385556734239, guid: 9f83b4029f4b8bf48933ffe33ed0dd3e, type: 3}
      propertyPath: m_SizeDelta.y
      value: 0
      objectReference: {fileID: 0}
    - target: {fileID: 7421169385556734239, guid: 9f83b4029f4b8bf48933ffe33ed0dd3e, type: 3}
      propertyPath: m_AnchoredPosition.x
      value: 0
      objectReference: {fileID: 0}
    - target: {fileID: 7421169385556734239, guid: 9f83b4029f4b8bf48933ffe33ed0dd3e, type: 3}
      propertyPath: m_AnchoredPosition.y
      value: 0
      objectReference: {fileID: 0}
    - target: {fileID: 7840388811177302678, guid: 9f83b4029f4b8bf48933ffe33ed0dd3e, type: 3}
      propertyPath: m_AnchorMax.y
      value: 0
      objectReference: {fileID: 0}
    - target: {fileID: 7840388811177302678, guid: 9f83b4029f4b8bf48933ffe33ed0dd3e, type: 3}
      propertyPath: m_AnchorMin.y
      value: 0
      objectReference: {fileID: 0}
    - target: {fileID: 7840388811177302678, guid: 9f83b4029f4b8bf48933ffe33ed0dd3e, type: 3}
      propertyPath: m_SizeDelta.x
      value: 0
      objectReference: {fileID: 0}
    - target: {fileID: 7840388811177302678, guid: 9f83b4029f4b8bf48933ffe33ed0dd3e, type: 3}
      propertyPath: m_SizeDelta.y
      value: 0
      objectReference: {fileID: 0}
    - target: {fileID: 7840388811177302678, guid: 9f83b4029f4b8bf48933ffe33ed0dd3e, type: 3}
      propertyPath: m_AnchoredPosition.x
      value: 0
      objectReference: {fileID: 0}
    - target: {fileID: 7840388811177302678, guid: 9f83b4029f4b8bf48933ffe33ed0dd3e, type: 3}
      propertyPath: m_AnchoredPosition.y
      value: 0
      objectReference: {fileID: 0}
    - target: {fileID: 8139651258919725242, guid: 9f83b4029f4b8bf48933ffe33ed0dd3e, type: 3}
      propertyPath: m_AnchorMax.y
      value: 0
      objectReference: {fileID: 0}
    - target: {fileID: 8139651258919725242, guid: 9f83b4029f4b8bf48933ffe33ed0dd3e, type: 3}
      propertyPath: m_AnchorMin.y
      value: 0
      objectReference: {fileID: 0}
    - target: {fileID: 8139651258919725242, guid: 9f83b4029f4b8bf48933ffe33ed0dd3e, type: 3}
      propertyPath: m_SizeDelta.x
      value: 0
      objectReference: {fileID: 0}
    - target: {fileID: 8139651258919725242, guid: 9f83b4029f4b8bf48933ffe33ed0dd3e, type: 3}
      propertyPath: m_SizeDelta.y
      value: 0
      objectReference: {fileID: 0}
    - target: {fileID: 8139651258919725242, guid: 9f83b4029f4b8bf48933ffe33ed0dd3e, type: 3}
      propertyPath: m_AnchoredPosition.x
      value: 0
      objectReference: {fileID: 0}
    - target: {fileID: 8139651258919725242, guid: 9f83b4029f4b8bf48933ffe33ed0dd3e, type: 3}
      propertyPath: m_AnchoredPosition.y
      value: 0
      objectReference: {fileID: 0}
    - target: {fileID: 8740858830884981583, guid: 9f83b4029f4b8bf48933ffe33ed0dd3e, type: 3}
      propertyPath: m_AnchorMax.y
      value: 0
      objectReference: {fileID: 0}
    - target: {fileID: 8740858830884981583, guid: 9f83b4029f4b8bf48933ffe33ed0dd3e, type: 3}
      propertyPath: m_AnchorMin.y
      value: 0
      objectReference: {fileID: 0}
    - target: {fileID: 8740858830884981583, guid: 9f83b4029f4b8bf48933ffe33ed0dd3e, type: 3}
      propertyPath: m_SizeDelta.x
      value: 0
      objectReference: {fileID: 0}
    - target: {fileID: 8740858830884981583, guid: 9f83b4029f4b8bf48933ffe33ed0dd3e, type: 3}
      propertyPath: m_SizeDelta.y
      value: 0
      objectReference: {fileID: 0}
    - target: {fileID: 8740858830884981583, guid: 9f83b4029f4b8bf48933ffe33ed0dd3e, type: 3}
      propertyPath: m_AnchoredPosition.x
      value: 0
      objectReference: {fileID: 0}
    - target: {fileID: 8740858830884981583, guid: 9f83b4029f4b8bf48933ffe33ed0dd3e, type: 3}
      propertyPath: m_AnchoredPosition.y
      value: 0
      objectReference: {fileID: 0}
    m_RemovedComponents: []
  m_SourcePrefab: {fileID: 100100000, guid: 9f83b4029f4b8bf48933ffe33ed0dd3e, type: 3}
--- !u!224 &224664830363741754 stripped
RectTransform:
  m_CorrespondingSourceObject: {fileID: 4760425410114085032, guid: 9f83b4029f4b8bf48933ffe33ed0dd3e, type: 3}
  m_PrefabInstance: {fileID: 4687762092362387090}
  m_PrefabAsset: {fileID: 0}
