%YAML 1.1
%TAG !u! tag:unity3d.com,2011:
--- !u!1 &1602997939324067808
GameObject:
  m_ObjectHideFlags: 0
  m_CorrespondingSourceObject: {fileID: 0}
  m_PrefabInstance: {fileID: 0}
  m_PrefabAsset: {fileID: 0}
  serializedVersion: 6
  m_Component:
  - component: {fileID: 1523570855728752338}
  - component: {fileID: 1525608778226075600}
  - component: {fileID: 1703484757560212284}
  m_Layer: 5
  m_Name: InventorySlot
  m_TagString: Untagged
  m_Icon: {fileID: 0}
  m_NavMeshLayer: 0
  m_StaticEditorFlags: 0
  m_IsActive: 1
--- !u!224 &1523570855728752338
RectTransform:
  m_ObjectHideFlags: 0
  m_CorrespondingSourceObject: {fileID: 0}
  m_PrefabInstance: {fileID: 0}
  m_PrefabAsset: {fileID: 0}
  m_GameObject: {fileID: 1602997939324067808}
  m_LocalRotation: {x: -0, y: -0, z: -0, w: 1}
  m_LocalPosition: {x: 0, y: 0, z: 0}
  m_LocalScale: {x: 1, y: 1, z: 1}
  m_Children:
  - {fileID: 3044871503539116358}
  m_Father: {fileID: 0}
  m_RootOrder: 0
  m_LocalEulerAnglesHint: {x: 0, y: 0, z: 0}
  m_AnchorMin: {x: 0, y: 0}
  m_AnchorMax: {x: 0.27760896, y: 0.3896441}
  m_AnchoredPosition: {x: -60.399994, y: -21.099976}
  m_SizeDelta: {x: -120.9, y: -42.2}
  m_Pivot: {x: 0.5, y: 0.5}
--- !u!222 &1525608778226075600
CanvasRenderer:
  m_ObjectHideFlags: 0
  m_CorrespondingSourceObject: {fileID: 0}
  m_PrefabInstance: {fileID: 0}
  m_PrefabAsset: {fileID: 0}
  m_GameObject: {fileID: 1602997939324067808}
  m_CullTransparentMesh: 0
--- !u!114 &1703484757560212284
MonoBehaviour:
  m_ObjectHideFlags: 0
  m_CorrespondingSourceObject: {fileID: 0}
  m_PrefabInstance: {fileID: 0}
  m_PrefabAsset: {fileID: 0}
  m_GameObject: {fileID: 1602997939324067808}
  m_Enabled: 1
  m_EditorHideFlags: 0
  m_Script: {fileID: 11500000, guid: fe87c0e1cc204ed48ad3b37840f39efc, type: 3}
  m_Name: 
  m_EditorClassIdentifier: 
  m_Material: {fileID: 0}
  m_Color: {r: 1, g: 1, b: 1, a: 1}
  m_RaycastTarget: 1
  m_RaycastPadding: {x: 0, y: 0, z: 0, w: 0}
  m_Maskable: 1
  m_OnCullStateChanged:
    m_PersistentCalls:
      m_Calls: []
  m_Sprite: {fileID: 21300000, guid: 83069f538d9e0604a8bed52715d594c0, type: 3}
  m_Type: 0
  m_PreserveAspect: 0
  m_FillCenter: 1
  m_FillMethod: 4
  m_FillAmount: 1
  m_FillClockwise: 1
  m_FillOrigin: 0
  m_UseSpriteMesh: 0
  m_PixelsPerUnitMultiplier: 1
--- !u!1001 &3738852935408870244
PrefabInstance:
  m_ObjectHideFlags: 0
  serializedVersion: 2
  m_Modification:
    m_TransformParent: {fileID: 1523570855728752338}
    m_Modifications:
    - target: {fileID: 812101378272355093, guid: 1973af7fc3e1d2b428983f58906580be, type: 3}
      propertyPath: m_Name
      value: InventoryItem
      objectReference: {fileID: 0}
    - target: {fileID: 1847210799765944866, guid: 1973af7fc3e1d2b428983f58906580be, type: 3}
      propertyPath: m_Pivot.x
      value: 0.5
      objectReference: {fileID: 0}
    - target: {fileID: 1847210799765944866, guid: 1973af7fc3e1d2b428983f58906580be, type: 3}
      propertyPath: m_Pivot.y
      value: 0.5
      objectReference: {fileID: 0}
    - target: {fileID: 1847210799765944866, guid: 1973af7fc3e1d2b428983f58906580be, type: 3}
      propertyPath: m_RootOrder
      value: 0
      objectReference: {fileID: 0}
    - target: {fileID: 1847210799765944866, guid: 1973af7fc3e1d2b428983f58906580be, type: 3}
      propertyPath: m_AnchorMax.x
      value: 1
      objectReference: {fileID: 0}
    - target: {fileID: 1847210799765944866, guid: 1973af7fc3e1d2b428983f58906580be, type: 3}
      propertyPath: m_AnchorMax.y
      value: 1
      objectReference: {fileID: 0}
    - target: {fileID: 1847210799765944866, guid: 1973af7fc3e1d2b428983f58906580be, type: 3}
      propertyPath: m_AnchorMin.x
      value: 0
      objectReference: {fileID: 0}
    - target: {fileID: 1847210799765944866, guid: 1973af7fc3e1d2b428983f58906580be, type: 3}
      propertyPath: m_AnchorMin.y
      value: 0
      objectReference: {fileID: 0}
    - target: {fileID: 1847210799765944866, guid: 1973af7fc3e1d2b428983f58906580be, type: 3}
      propertyPath: m_SizeDelta.x
      value: -40
      objectReference: {fileID: 0}
    - target: {fileID: 1847210799765944866, guid: 1973af7fc3e1d2b428983f58906580be, type: 3}
      propertyPath: m_SizeDelta.y
      value: -40
      objectReference: {fileID: 0}
    - target: {fileID: 1847210799765944866, guid: 1973af7fc3e1d2b428983f58906580be, type: 3}
      propertyPath: m_LocalPosition.x
      value: 0
      objectReference: {fileID: 0}
    - target: {fileID: 1847210799765944866, guid: 1973af7fc3e1d2b428983f58906580be, type: 3}
      propertyPath: m_LocalPosition.y
      value: 0
      objectReference: {fileID: 0}
    - target: {fileID: 1847210799765944866, guid: 1973af7fc3e1d2b428983f58906580be, type: 3}
      propertyPath: m_LocalPosition.z
      value: 50
      objectReference: {fileID: 0}
    - target: {fileID: 1847210799765944866, guid: 1973af7fc3e1d2b428983f58906580be, type: 3}
      propertyPath: m_LocalRotation.w
      value: 1
      objectReference: {fileID: 0}
    - target: {fileID: 1847210799765944866, guid: 1973af7fc3e1d2b428983f58906580be, type: 3}
      propertyPath: m_LocalRotation.x
      value: 0
      objectReference: {fileID: 0}
    - target: {fileID: 1847210799765944866, guid: 1973af7fc3e1d2b428983f58906580be, type: 3}
      propertyPath: m_LocalRotation.y
      value: 0
      objectReference: {fileID: 0}
    - target: {fileID: 1847210799765944866, guid: 1973af7fc3e1d2b428983f58906580be, type: 3}
      propertyPath: m_LocalRotation.z
      value: 0
      objectReference: {fileID: 0}
    - target: {fileID: 1847210799765944866, guid: 1973af7fc3e1d2b428983f58906580be, type: 3}
      propertyPath: m_AnchoredPosition.x
      value: 0
      objectReference: {fileID: 0}
    - target: {fileID: 1847210799765944866, guid: 1973af7fc3e1d2b428983f58906580be, type: 3}
      propertyPath: m_AnchoredPosition.y
      value: 0
      objectReference: {fileID: 0}
    - target: {fileID: 1847210799765944866, guid: 1973af7fc3e1d2b428983f58906580be, type: 3}
      propertyPath: m_LocalEulerAnglesHint.x
      value: 0
      objectReference: {fileID: 0}
    - target: {fileID: 1847210799765944866, guid: 1973af7fc3e1d2b428983f58906580be, type: 3}
      propertyPath: m_LocalEulerAnglesHint.y
      value: 0
      objectReference: {fileID: 0}
    - target: {fileID: 1847210799765944866, guid: 1973af7fc3e1d2b428983f58906580be, type: 3}
      propertyPath: m_LocalEulerAnglesHint.z
      value: 0
      objectReference: {fileID: 0}
    m_RemovedComponents: []
  m_SourcePrefab: {fileID: 100100000, guid: 1973af7fc3e1d2b428983f58906580be, type: 3}
--- !u!224 &3044871503539116358 stripped
RectTransform:
  m_CorrespondingSourceObject: {fileID: 1847210799765944866, guid: 1973af7fc3e1d2b428983f58906580be, type: 3}
  m_PrefabInstance: {fileID: 3738852935408870244}
  m_PrefabAsset: {fileID: 0}
